<?xml version="1.0" encoding="UTF-8" standalone="no"?>
<!-- Created with Inkscape (http://www.inkscape.org/) -->

<svg
   xmlns:dc="http://purl.org/dc/elements/1.1/"
   xmlns:cc="http://creativecommons.org/ns#"
   xmlns:rdf="http://www.w3.org/1999/02/22-rdf-syntax-ns#"
   xmlns:svg="http://www.w3.org/2000/svg"
   xmlns="http://www.w3.org/2000/svg"
   xmlns:sodipodi="http://sodipodi.sourceforge.net/DTD/sodipodi-0.dtd"
   xmlns:inkscape="http://www.inkscape.org/namespaces/inkscape"
   width="210mm"
   height="297mm"
   viewBox="0 0 744.09448819 1052.3622047"
   id="svg2"
   version="1.1"
   inkscape:version="0.91 r13725"
   inkscape:export-filename="C:\Users\Vittorio\Desktop\Flexible_Payload_Range.png"
   inkscape:export-xdpi="90"
   inkscape:export-ydpi="90"
   sodipodi:docname="Payload-Range_Chart_MZFW.svg">
  <sodipodi:namedview
     id="base"
     pagecolor="#ffffff"
     bordercolor="#666666"
     borderopacity="1.0"
     inkscape:pageopacity="0.0"
     inkscape:pageshadow="2"
     inkscape:zoom="1.4"
     inkscape:cx="287.84287"
     inkscape:cy="760.73109"
     inkscape:document-units="px"
     inkscape:current-layer="g9741"
     showgrid="false"
     inkscape:window-width="1920"
     inkscape:window-height="1001"
     inkscape:window-x="-9"
     inkscape:window-y="-9"
     inkscape:window-maximized="1" />
  <defs
     id="defs4" />
  <metadata
     id="metadata7">
    <rdf:RDF>
      <cc:Work
         rdf:about="">
        <dc:format>image/svg+xml</dc:format>
        <dc:type
           rdf:resource="http://purl.org/dc/dcmitype/StillImage" />
        <dc:title />
      </cc:Work>
    </rdf:RDF>
  </metadata>
  <g
     inkscape:label="Livello 1"
     inkscape:groupmode="layer"
     id="layer1" />
  <g
     id="g9088"
     transform="matrix(1.4593926,0,0,1.1690925,-179.75486,-68.224574)">
    <g
       transform="matrix(0.465696,0,0,0.465696,362.86515,313.45791)"
       id="g9111">
      <g
         style="font-style:normal;font-variant:normal;font-weight:normal;font-stretch:normal;letter-spacing:normal;word-spacing:normal;text-anchor:start;fill:none;fill-opacity:1;fill-rule:evenodd;stroke:#000000;stroke-linecap:butt;stroke-linejoin:miter;stroke-miterlimit:10.43299961;stroke-dasharray:none;stroke-dashoffset:0;stroke-opacity:1"
         id="content"
         transform="matrix(1.0629921,0,0,-1.0629921,-186.02362,789.27165)"
         xml:space="preserve"
         stroke-miterlimit="10.433"
         font-style="normal"
         font-variant="normal"
         font-weight="normal"
         font-stretch="normal"
         font-size-adjust="none"
         letter-spacing="normal"
         word-spacing="normal"><g
           id="g9741"><g
             id="g16312"
             inkscape:export-xdpi="90"
             inkscape:export-ydpi="90"><g
               id="g16205"><g
                 id="g15231"
                 inkscape:export-xdpi="90"
                 inkscape:export-ydpi="90"><g
                   id="g9093"
                   transform="matrix(2.0200748,0,0,-2.0200748,-546.15027,1309.0609)"><path
                     style="fill:none;fill-rule:evenodd;stroke:#000000;stroke-width:3.70000005;stroke-linecap:round;stroke-linejoin:miter;stroke-miterlimit:4;stroke-dasharray:none;stroke-opacity:1"
                     d="m 202.85715,79.505044 1.42857,334.285706 322.85714,-1.42857"
                     id="path8276"
                     inkscape:connector-curvature="0" /><path
                     style="fill:#000000;fill-opacity:1;fill-rule:evenodd;stroke:#000000;stroke-width:1;stroke-linecap:round;stroke-linejoin:miter;stroke-miterlimit:0;stroke-dasharray:none;stroke-opacity:1"
                     d="m 195.71706,81.100511 7.07106,-15.152289 8.08122,15.152289 z"
                     id="path9083"
                     inkscape:connector-curvature="0"
                     sodipodi:nodetypes="cccc" /><path
                     sodipodi:nodetypes="cccc"
                     inkscape:connector-curvature="0"
                     id="path9086"
                     d="m 525.27933,404.60187 15.15228,7.07106 -15.15228,8.08122 z"
                     style="fill:#000000;fill-opacity:1;fill-rule:evenodd;stroke:#000000;stroke-width:1;stroke-linecap:round;stroke-linejoin:miter;stroke-miterlimit:0;stroke-dasharray:none;stroke-opacity:1" /></g><path
                   sodipodi:nodetypes="cc"
                   style="fill:none;fill-rule:evenodd;stroke:#000000;stroke-width:2.5570004;stroke-linecap:round;stroke-linejoin:miter;stroke-miterlimit:4;stroke-dasharray:none;stroke-opacity:1"
                   d="M 116.68496,791.46945 307.85935,619.10227"
                   id="path9098"
                   inkscape:connector-curvature="0" /><path
                   style="fill:#000000;stroke-width:0"
                   inkscape:connector-curvature="0"
                   d="m 526.62531,430.54529 0.45,0.12 0.44,0.12 0.44,0.14 0.43,0.15 0.42,0.16 0.42,0.17 0.4,0.18 0.4,0.19 0.39,0.19 0.37,0.21 0.37,0.22 0.35,0.22 0.34,0.23 0.33,0.24 0.32,0.25 0.3,0.26 0.29,0.27 0.27,0.27 0.26,0.28 0.24,0.29 0.23,0.29 0.21,0.31 0.19,0.3 0.18,0.32 0.15,0.32 0.14,0.33 0.12,0.33 0.09,0.35 0.08,0.34 0.06,0.35 0.03,0.36 0.01,0.36 c 0,4.78 -5.67,8.97 -13,8.97 l -15.64,0 0,-1.55 1.19,0 c 3.84,0 3.93,-0.54 3.93,-2.34 l 0,-26.25 c 0,-1.8 -0.09,-2.34 -3.93,-2.34 l -1.19,0 0,-1.55 c 1.78,0.16 5.33,0.16 7.27,0.16 1.93,0 5.48,0 7.28,-0.16 l 0,1.55 -1.21,0 c -3.82,0 -3.93,0.54 -3.93,2.34 l 0,12.59 0,1.11 0,12.89 c 0,1.16 0,1.75 1.09,1.91 0.5,0.09 1.95,0.09 2.95,0.09 4.47,0 10.07,-0.2 10.07,-7.42 0,-3.44 -1.21,-7.47 -8.58,-7.47 l -5.53,0 0,-1.11 5.73,0 c 0.8,0 2.89,0 4.63,-1.68 1.9,-1.8 1.9,-3.35 1.9,-6.68 0,-3.25 0,-5.23 2.03,-7.12 2.05,-1.8 4.78,-2.09 6.28,-2.09 3.89,0 4.74,4.07 4.74,5.48 0,0.3 0,0.84 -0.64,0.84 -0.55,0 -0.55,-0.45 -0.61,-0.79 -0.3,-3.55 -2.03,-4.44 -3.28,-4.44 -2.44,0 -2.85,2.55 -3.55,7.17 l -0.64,3.99 c -0.89,3.18 -3.34,4.84 -6.08,5.78 z"
                   id="path9114" /><g
                   transform="matrix(0.94457155,0,0,-1,-507.02849,1497.1201)"
                   id="g9213"><g
                     style="font-style:normal;font-variant:normal;font-weight:normal;font-stretch:normal;letter-spacing:normal;word-spacing:normal;text-anchor:start;fill:none;fill-opacity:1;fill-rule:evenodd;stroke:#000000;stroke-linecap:butt;stroke-linejoin:miter;stroke-miterlimit:10.43299961;stroke-dasharray:none;stroke-dashoffset:0;stroke-opacity:1"
                     id="g9215"
                     transform="matrix(1.0629921,0,0,-1.0629921,-186.02362,789.27165)"
                     xml:space="preserve"
                     stroke-miterlimit="10.433"
                     font-style="normal"
                     font-variant="normal"
                     font-weight="normal"
                     font-stretch="normal"
                     font-size-adjust="none"
                     letter-spacing="normal"
                     word-spacing="normal"><path
                       style="fill:#000000;stroke-width:0"
                       inkscape:connector-curvature="0"
                       d="m 500.8,435.34 0.09,0.26 0.09,0.25 0.11,0.23 0.11,0.22 0.11,0.21 0.12,0.19 0.13,0.19 0.13,0.17 0.14,0.16 0.14,0.16 0.14,0.14 0.16,0.13 0.15,0.12 0.16,0.11 0.16,0.1 0.17,0.1 0.16,0.08 0.18,0.08 0.17,0.07 0.18,0.07 0.17,0.05 0.18,0.05 0.18,0.04 0.19,0.04 0.18,0.03 0.18,0.03 0.19,0.02 0.18,0.02 0.37,0.02 0.37,0 0,1.55 c -1.49,-0.11 -3.04,-0.16 -4.54,-0.16 -1.43,0 -4.62,0.11 -5.92,0.16 l 0,-1.55 c 3.33,-0.04 4.33,-1.68 4.33,-2.64 0,-0.29 -0.14,-0.7 -0.25,-1 l -7.47,-23.01 -7.97,24.4 c -0.06,0.21 -0.15,0.5 -0.15,0.75 0,1.5 2.89,1.5 4.18,1.5 l 0,1.55 c -1.79,-0.16 -5.18,-0.16 -7.07,-0.16 -1.89,0 -4.04,0.11 -6.08,0.16 l 0,-1.55 c 2.84,0 3.89,0 4.48,-1.79 l 1.1,-3.49 -6.93,-21.37 -8.01,24.51 c -0.05,0.14 -0.11,0.5 -0.11,0.64 0,1.5 2.89,1.5 4.19,1.5 l 0,1.55 c -1.8,-0.16 -5.18,-0.16 -7.08,-0.16 -1.89,0 -4.03,0.11 -6.08,0.16 l 0,-1.55 c 3.75,0 3.94,-0.25 4.55,-2.09 l 9.95,-30.55 c 0.16,-0.43 0.3,-0.93 0.95,-0.93 0.69,0 0.8,0.34 1,1 l 8.22,25.29 8.27,-25.36 c 0.15,-0.43 0.29,-0.93 0.95,-0.93 0.69,0 0.8,0.34 0.99,1 z"
                       id="path9217" /></g></g><path
                   style="font-style:normal;font-variant:normal;font-weight:normal;font-stretch:normal;letter-spacing:normal;word-spacing:normal;text-anchor:start;fill:none;fill-opacity:1;fill-rule:evenodd;stroke:#000000;stroke-width:0;stroke-linecap:butt;stroke-linejoin:miter;stroke-miterlimit:10.43299961;stroke-dasharray:none;stroke-dashoffset:0;stroke-opacity:1"
                   d="m -134.19909,1016.7725 594.21241,0"
                   id="path9442"
                   inkscape:connector-curvature="0" /><path
                   inkscape:connector-curvature="0"
                   id="path9444"
                   d="m 461.49647,476.8038 0,540.5858"
                   style="font-style:normal;font-variant:normal;font-weight:normal;font-stretch:normal;letter-spacing:normal;word-spacing:normal;text-anchor:start;fill:none;fill-opacity:1;fill-rule:evenodd;stroke:#000000;stroke-width:0;stroke-linecap:butt;stroke-linejoin:miter;stroke-miterlimit:10.43299961;stroke-dasharray:none;stroke-dashoffset:0;stroke-opacity:1" /><path
                   style="fill:none;fill-rule:evenodd;stroke:#000000;stroke-width:2.87344337;stroke-linecap:butt;stroke-linejoin:miter;stroke-miterlimit:10.43299961;stroke-dasharray:5.74688695, 2.87344347, 1.43672174, 2.87344347;stroke-dashoffset:0;stroke-opacity:1"
                   d="M 114.85787,1017.1643 -132.19202,793.97657"
                   id="path9446"
                   inkscape:connector-curvature="0" /><g
                   id="g9490"
                   transform="translate(-442.9404,92.566066)"><g
                     id="g9492"
                     transform="matrix(1.0629921,0,0,-1.0629921,-186.02362,789.27165)"
                     xml:space="preserve"
                     stroke-miterlimit="10.433"
                     font-style="normal"
                     font-variant="normal"
                     font-weight="normal"
                     font-stretch="normal"
                     font-size-adjust="none"
                     letter-spacing="normal"
                     word-spacing="normal"
                     style="font-style:normal;font-variant:normal;font-weight:normal;font-stretch:normal;letter-spacing:normal;word-spacing:normal;text-anchor:start;fill:none;fill-opacity:1;fill-rule:evenodd;stroke:#000000;stroke-linecap:butt;stroke-linejoin:miter;stroke-miterlimit:10.43299961;stroke-dasharray:none;stroke-dashoffset:0;stroke-opacity:1"><path
                       d="m 478.44,422.14 0,0.74 -0.01,0.75 -0.02,0.75 -0.04,0.74 -0.04,0.75 -0.06,0.74 -0.08,0.74 -0.09,0.73 -0.12,0.73 -0.14,0.73 -0.16,0.72 -0.19,0.72 -0.21,0.72 -0.25,0.7 -0.28,0.7 -0.15,0.35 -0.16,0.34 c -2.28,4.8 -6.37,5.6 -8.47,5.6 -2.98,0 -6.62,-1.3 -8.67,-5.94 -1.59,-3.44 -1.84,-7.33 -1.84,-11.31 0,-3.74 0.2,-8.22 2.25,-12 2.14,-4.03 5.78,-5.03 8.22,-5.03 l 0,1.09 c -1.94,0 -4.89,1.25 -5.79,6.03 -0.54,2.98 -0.54,7.56 -0.54,10.52 0,3.18 0,6.46 0.4,9.15 0.94,5.94 4.68,6.38 5.93,6.38 1.64,0 4.93,-0.89 5.87,-5.83 0.5,-2.78 0.5,-6.58 0.5,-9.7 0,-3.75 0,-7.13 -0.55,-10.32 -0.75,-4.73 -3.59,-6.23 -5.82,-6.23 l 0,0 0,-1.09 c 2.68,0 6.46,1.04 8.67,5.78 1.59,3.43 1.84,7.31 1.84,11.25 z"
                       id="path9494"
                       inkscape:connector-curvature="0"
                       style="fill:#000000;stroke-width:0" /></g></g><g
                   id="g9584"
                   transform="matrix(0.87609258,0,0,-0.9738489,-538.67255,826.1048)"><g
                     word-spacing="normal"
                     letter-spacing="normal"
                     font-size-adjust="none"
                     font-stretch="normal"
                     font-weight="normal"
                     font-variant="normal"
                     font-style="normal"
                     stroke-miterlimit="10.433"
                     xml:space="preserve"
                     transform="matrix(1.0629921,0,0,-1.0629921,-186.02362,789.27165)"
                     id="g9586"
                     style="font-style:normal;font-variant:normal;font-weight:normal;font-stretch:normal;letter-spacing:normal;word-spacing:normal;text-anchor:start;fill:none;fill-opacity:1;fill-rule:evenodd;stroke:#000000;stroke-linecap:butt;stroke-linejoin:miter;stroke-miterlimit:10.43299961;stroke-dasharray:none;stroke-dashoffset:0;stroke-opacity:1"><g
                       id="g9646"
                       transform="translate(37.370586,-15.737758)"><path
                         style="fill:#000000;stroke-width:0"
                         inkscape:connector-curvature="0"
                         d="m 520.65312,444.52036 0.09,0.26 0.09,0.25 0.11,0.23 0.11,0.22 0.11,0.21 0.12,0.19 0.13,0.19 0.13,0.17 0.14,0.16 0.14,0.16 0.14,0.14 0.16,0.13 0.15,0.12 0.16,0.11 0.16,0.1 0.17,0.1 0.16,0.08 0.18,0.08 0.17,0.07 0.18,0.07 0.17,0.05 0.18,0.05 0.18,0.04 0.19,0.04 0.18,0.03 0.18,0.03 0.19,0.02 0.18,0.02 0.37,0.02 0.37,0 0,1.55 c -1.49,-0.11 -3.04,-0.16 -4.54,-0.16 -1.43,0 -4.62,0.11 -5.92,0.16 l 0,-1.55 c 3.33,-0.04 4.33,-1.68 4.33,-2.64 0,-0.29 -0.14,-0.7 -0.25,-1 l -7.47,-23.01 -7.97,24.4 c -0.06,0.21 -0.15,0.5 -0.15,0.75 0,1.5 2.89,1.5 4.18,1.5 l 0,1.55 c -1.79,-0.16 -5.18,-0.16 -7.07,-0.16 -1.89,0 -4.04,0.11 -6.08,0.16 l 0,-1.55 c 2.84,0 3.89,0 4.48,-1.79 l 1.1,-3.49 -6.93,-21.37 -8.01,24.51 c -0.05,0.14 -0.11,0.5 -0.11,0.64 0,1.5 2.89,1.5 4.19,1.5 l 0,1.55 c -1.8,-0.16 -5.18,-0.16 -7.08,-0.16 -1.89,0 -4.03,0.11 -6.08,0.16 l 0,-1.55 c 3.75,0 3.94,-0.25 4.55,-2.09 l 9.95,-30.55 c 0.16,-0.43 0.3,-0.93 0.95,-0.93 0.69,0 0.8,0.34 1,1 l 8.22,25.29 8.27,-25.36 c 0.15,-0.43 0.29,-0.93 0.95,-0.93 0.69,0 0.8,0.34 0.99,1 z"
                         id="path9588" /><g
                         transform="matrix(0.5,0,0,0.5,271.1675,211.60752)"
                         id="g9642"><path
                           id="path9590"
                           d="m 541.24,423.09 -0.02,0.95 -0.07,0.93 -0.11,0.92 -0.14,0.9 -0.19,0.89 -0.23,0.86 -0.26,0.85 -0.3,0.83 -0.34,0.81 -0.37,0.79 -0.4,0.76 -0.43,0.74 -0.47,0.72 -0.49,0.68 -0.53,0.66 -0.55,0.64 -0.58,0.6 -0.6,0.57 -0.63,0.54 -0.65,0.5 -0.68,0.47 -0.69,0.44 -0.72,0.4 -0.73,0.36 -0.75,0.33 -0.77,0.28 -0.78,0.25 -0.8,0.2 -0.81,0.16 -0.83,0.11 -0.83,0.07 -0.84,0.02 0,-1.25 c 4.34,0 11.46,-3.53 11.46,-16.28 0,-13.2 -6.83,-17.39 -11.42,-17.39 l 0,0 c -4.78,0 -11.45,4.38 -11.45,17.39 0,12.89 7.28,16.28 11.41,16.28 l 0,1.25 c -8.93,0 -16.54,-7.96 -16.54,-18.23 0,-10.22 7.67,-17.98 16.54,-17.98 9.06,0 16.59,7.92 16.59,17.98 z"
                           inkscape:connector-curvature="0"
                           style="fill:#000000;stroke-width:0" /><path
                           id="path9592"
                           d="m 550.85,410.09 0,-0.16 0,-0.16 0,-0.15 -0.01,-0.15 -0.01,-0.13 -0.01,-0.13 -0.02,-0.13 -0.02,-0.11 -0.03,-0.12 -0.04,-0.1 -0.04,-0.1 -0.05,-0.09 -0.06,-0.09 -0.07,-0.08 -0.08,-0.08 -0.09,-0.07 -0.1,-0.06 -0.11,-0.06 -0.06,-0.03 -0.07,-0.03 -0.06,-0.02 -0.07,-0.03 -0.08,-0.02 -0.08,-0.02 -0.08,-0.02 -0.08,-0.02 -0.09,-0.02 -0.09,-0.02 -0.1,-0.02 -0.1,-0.01 -0.11,-0.01 -0.11,-0.02 -0.11,-0.01 -0.12,-0.01 -0.12,-0.01 -0.13,-0.01 -0.13,-0.01 -0.13,-0.01 -0.14,0 -0.15,-0.01 -0.15,0 -0.16,-0.01 -0.16,0 -0.16,0 -0.18,0 -0.17,0 -1.2,0 0,-1.55 28.75,0 2.09,12.86 -1.25,0 c -1.24,-7.67 -2.39,-11.31 -10.96,-11.31 l -6.62,0 c -2.34,0 -2.45,0.34 -2.45,1.98 l 0,13.31 4.48,0 c 4.84,0 5.39,-1.59 5.39,-5.83 l 1.24,0 0,13.21 -1.24,0 c 0,-4.3 -0.55,-5.83 -5.39,-5.83 l -4.48,0 0,11.95 c 0,1.64 0.11,1.99 2.45,1.99 l 6.42,0 c 7.63,0 8.97,-2.74 9.77,-9.66 l 1.25,0 -1.41,11.2 -28.04,0 0,-1.54 1.2,0 c 3.83,0 3.93,-0.55 3.93,-2.33 z"
                           inkscape:connector-curvature="0"
                           style="fill:#000000;stroke-width:0" /></g></g></g></g><path
                   inkscape:connector-curvature="0"
                   id="path9791"
                   d="m -130.3967,792.38806 246.59699,-0.43385"
                   style="fill:none;fill-rule:evenodd;stroke:#000000;stroke-width:2.45794511;stroke-linecap:round;stroke-linejoin:miter;stroke-miterlimit:4;stroke-dasharray:none;stroke-opacity:1"
                   sodipodi:nodetypes="cc" /><path
                   inkscape:connector-curvature="0"
                   id="path9793"
                   d="m 310.54467,1016.8917 -196.04757,-0.098"
                   style="fill:none;fill-rule:evenodd;stroke:#000000;stroke-width:2.87344337;stroke-linecap:butt;stroke-linejoin:miter;stroke-miterlimit:10.43299961;stroke-dasharray:5.74688695, 2.87344347, 1.43672174, 2.87344347;stroke-dashoffset:0;stroke-opacity:1" /><path
                   inkscape:connector-curvature="0"
                   id="path9795"
                   d="M 308.01373,619.03786 362.10976,474.24342"
                   style="fill:none;fill-rule:evenodd;stroke:#000000;stroke-width:2.43886995;stroke-linecap:round;stroke-linejoin:miter;stroke-miterlimit:4;stroke-dasharray:none;stroke-opacity:1"
                   sodipodi:nodetypes="cc" /><path
                   inkscape:connector-curvature="0"
                   id="path9797"
                   d="M -131.42871,1016.3128 461.39509,480.74013"
                   style="fill:none;fill-rule:evenodd;stroke:#000000;stroke-width:1.80170164;stroke-linecap:round;stroke-linejoin:miter;stroke-miterlimit:4;stroke-dasharray:21.62041967,21.62041967;stroke-dashoffset:0;stroke-opacity:1"
                   sodipodi:nodetypes="cc" /><path
                   inkscape:connector-curvature="0"
                   id="path9813"
                   d="M 360.59432,855.79507 310.21111,1017.0567"
                   style="fill:none;fill-rule:evenodd;stroke:#000000;stroke-width:2.82086158;stroke-linecap:butt;stroke-linejoin:miter;stroke-miterlimit:10.43299961;stroke-dasharray:5.64172324, 2.82086162, 1.41043081, 2.82086162;stroke-dashoffset:0;stroke-opacity:1" /><path
                   sodipodi:nodetypes="cc"
                   style="fill:none;fill-rule:evenodd;stroke:#000000;stroke-width:0.90074039;stroke-linecap:round;stroke-linejoin:miter;stroke-miterlimit:4;stroke-dasharray:7.20592298, 3.60296149;stroke-dashoffset:0.54097444;stroke-opacity:1"
                   d="m -134.55189,1016.9513 597.26539,0.046"
                   id="path9815"
                   inkscape:connector-curvature="0" /><path
                   inkscape:connector-curvature="0"
                   id="path9817"
                   d="m 463.06616,479.78109 -0.0475,536.79031"
                   style="fill:none;fill-rule:evenodd;stroke:#000000;stroke-width:0.86480147;stroke-linecap:round;stroke-linejoin:miter;stroke-miterlimit:4;stroke-dasharray:6.91841228, 3.45920613;stroke-dashoffset:0.54097444;stroke-opacity:1"
                   sodipodi:nodetypes="cc" /><path
                   sodipodi:nodetypes="cc"
                   style="fill:none;fill-rule:evenodd;stroke:#000000;stroke-width:0.86480147;stroke-linecap:round;stroke-linejoin:miter;stroke-miterlimit:4;stroke-dasharray:6.91841228, 3.45920613;stroke-dashoffset:0.54097444;stroke-opacity:1"
                   d="m 362.21812,479.78109 -0.0475,536.79031"
                   id="path9819"
                   inkscape:connector-curvature="0" /><path
                   inkscape:connector-curvature="0"
                   id="path9821"
                   d="m 308.82798,479.78109 -0.0475,536.79031"
                   style="fill:none;fill-rule:evenodd;stroke:#000000;stroke-width:0.86480147;stroke-linecap:round;stroke-linejoin:miter;stroke-miterlimit:4;stroke-dasharray:6.91841228, 3.45920613;stroke-dashoffset:0.54097444;stroke-opacity:1"
                   sodipodi:nodetypes="cc" /><path
                   sodipodi:nodetypes="cc"
                   style="fill:none;fill-rule:evenodd;stroke:#000000;stroke-width:0.86480147;stroke-linecap:round;stroke-linejoin:miter;stroke-miterlimit:4;stroke-dasharray:6.91841228, 3.45920613;stroke-dashoffset:0.54097444;stroke-opacity:1"
                   d="m 116.17762,479.78109 -0.0475,536.79031"
                   id="path9823"
                   inkscape:connector-curvature="0" /><path
                   inkscape:connector-curvature="0"
                   id="path9825"
                   d="m -131.41307,854.02924 493.51537,0.0576"
                   style="fill:none;fill-rule:evenodd;stroke:#000000;stroke-width:0.91566449;stroke-linecap:round;stroke-linejoin:miter;stroke-miterlimit:4;stroke-dasharray:7.32531567, 3.66265784;stroke-dashoffset:0.54097444;stroke-opacity:1"
                   sodipodi:nodetypes="cc" /><g
                   transform="matrix(0.73509188,0,0,-0.89316269,-489.61017,1093.5025)"
                   id="g9869"><g
                     style="font-style:normal;font-variant:normal;font-weight:normal;font-stretch:normal;letter-spacing:normal;word-spacing:normal;text-anchor:start;fill:none;fill-opacity:1;fill-rule:evenodd;stroke:#000000;stroke-linecap:butt;stroke-linejoin:miter;stroke-miterlimit:10.43299961;stroke-dasharray:none;stroke-dashoffset:0;stroke-opacity:1"
                     word-spacing="normal"
                     letter-spacing="normal"
                     font-size-adjust="none"
                     font-stretch="normal"
                     font-weight="normal"
                     font-variant="normal"
                     font-style="normal"
                     stroke-miterlimit="10.433"
                     xml:space="preserve"
                     transform="matrix(1.0629921,0,0,-1.0629921,-186.02362,789.27165)"
                     id="g9871"><path
                       style="fill:#000000;stroke-width:0"
                       inkscape:connector-curvature="0"
                       id="path9873"
                       d="m 467.52,439.14 -0.02,0.05 -0.02,0.05 -0.02,0.04 -0.02,0.05 -0.04,0.09 -0.03,0.08 -0.04,0.07 -0.03,0.07 -0.04,0.07 -0.04,0.06 -0.03,0.05 -0.04,0.05 -0.03,0.05 -0.04,0.04 -0.04,0.04 -0.04,0.04 -0.04,0.03 -0.04,0.02 -0.05,0.03 -0.05,0.02 -0.05,0.02 -0.05,0.01 -0.06,0.02 -0.06,0.01 -0.06,0.01 -0.06,0 -0.07,0.01 -0.08,0 -0.08,0.01 -0.08,0 -0.09,0 -0.09,0 -0.1,0 -0.1,0 -8.43,0 0,-1.55 1.21,0 c 3.82,0 3.92,-0.54 3.92,-2.34 l 0,-24.91 c 0,-1.34 0,-3.68 -5.13,-3.68 l 0,-1.55 c 1.75,0.05 4.19,0.16 5.83,0.16 1.64,0 4.1,-0.11 5.83,-0.16 l 0,1.55 c -5.13,0 -5.13,2.34 -5.13,3.68 l 0,26.85 0.05,0 12,-30.99 c 0.25,-0.64 0.5,-1.09 1,-1.09 0.55,0 0.7,0.41 0.89,0.95 l 12.27,31.53 0.04,0 0,-28.59 c 0,-1.8 -0.09,-2.34 -3.93,-2.34 l -1.19,0 0,-1.55 c 1.84,0.16 5.22,0.16 7.17,0.16 1.94,0 5.28,0 7.13,-0.16 l 0,1.55 -1.21,0 c -3.82,0 -3.93,0.54 -3.93,2.34 l 0,26.25 c 0,1.8 0.11,2.34 3.93,2.34 l 1.21,0 0,1.55 -8.43,0 c -1.29,0 -1.29,-0.05 -1.64,-0.95 l -10.92,-28.05 z" /><path
                       style="fill:#000000;stroke-width:0"
                       inkscape:connector-curvature="0"
                       id="path9875"
                       d="m 528.49,438.48 0.01,0.03 0.02,0.02 0.01,0.02 0.02,0.03 0.01,0.02 0.02,0.02 0.01,0.02 0.01,0.02 0.03,0.04 0.02,0.04 0.02,0.04 0.02,0.03 0.01,0.03 0.02,0.03 0.01,0.03 0.02,0.03 0.01,0.02 0.01,0.03 0.01,0.02 0.01,0.03 0.01,0.02 0,0.02 0.01,0.03 0,0.02 0.01,0.04 0,0.03 0.01,0.02 0,0.02 0,0.03 0,0.03 0,0.02 0,0.03 0,0.03 0,0.03 0,0.03 c 0,0.8 -0.3,0.8 -1.28,0.8 l -22.33,0 -0.54,-11.22 1.25,0 c 0.34,5.64 1.84,9.67 10.01,9.67 l 7.81,0 -19.37,-30.64 c -0.34,-0.54 -0.34,-0.59 -0.34,-1 0,-0.84 0.25,-0.84 1.28,-0.84 l 22.96,0 0.87,13.3 -1.25,0 c -0.41,-6.93 -1.35,-11.61 -10.57,-11.61 l -8.17,0 z" /><path
                       style="fill:#000000;stroke-width:0"
                       inkscape:connector-curvature="0"
                       id="path9877"
                       d="m 560.72,440.07 -27.37,0 0,-1.54 1.21,0 c 3.83,0 3.94,-0.55 3.94,-2.33 l 0,-26.11 c 0,-1.8 -0.11,-2.34 -3.94,-2.34 l -1.21,0 0,-1.55 c 1.75,0.16 5.65,0.16 7.58,0.16 2.05,0 6.58,0 8.38,-0.16 l 0,1.55 -1.66,0 c -4.73,0 -4.73,0.64 -4.73,2.39 l 0,12.25 4.3,0 c 4.78,0 5.28,-1.6 5.28,-5.83 l 1.23,0 0,13.2 -1.23,0 c 0,-4.19 -0.5,-5.83 -5.28,-5.83 l -4.3,0 0,12.61 c 0,1.64 0.11,1.99 2.45,1.99 l 5.97,0 c 7.48,0 8.72,-2.78 9.51,-9.66 l 1.25,0 z" /><path
                       style="fill:#000000;stroke-width:0"
                       inkscape:connector-curvature="0"
                       id="path9879"
                       d="m 609.52,435.34 0.08,0.26 0.1,0.25 0.1,0.23 0.11,0.22 0.12,0.21 0.12,0.19 0.12,0.19 0.13,0.17 0.14,0.16 0.14,0.16 0.15,0.14 0.15,0.13 0.16,0.12 0.15,0.11 0.17,0.1 0.16,0.1 0.17,0.08 0.17,0.08 0.17,0.07 0.18,0.07 0.18,0.05 0.18,0.05 0.18,0.04 0.18,0.04 0.18,0.03 0.19,0.03 0.18,0.02 0.19,0.02 0.36,0.02 0.37,0 0,1.55 c -1.48,-0.11 -3.03,-0.16 -4.53,-0.16 -1.44,0 -4.63,0.11 -5.92,0.16 l 0,-1.55 c 3.33,-0.04 4.33,-1.68 4.33,-2.64 0,-0.29 -0.15,-0.7 -0.25,-1 l -7.47,-23.01 -7.97,24.4 c -0.06,0.21 -0.16,0.5 -0.16,0.75 0,1.5 2.89,1.5 4.19,1.5 l 0,1.55 c -1.8,-0.16 -5.19,-0.16 -7.08,-0.16 -1.89,0 -4.03,0.11 -6.08,0.16 l 0,-1.55 c 2.85,0 3.89,0 4.49,-1.79 l 1.09,-3.49 -6.92,-21.37 -8.02,24.51 c -0.04,0.14 -0.11,0.5 -0.11,0.64 0,1.5 2.89,1.5 4.19,1.5 l 0,1.55 c -1.8,-0.16 -5.17,-0.16 -7.08,-0.16 -1.89,0 -4.03,0.11 -6.07,0.16 l 0,-1.55 c 3.75,0 3.93,-0.25 4.54,-2.09 l 9.96,-30.55 c 0.15,-0.43 0.29,-0.93 0.95,-0.93 0.69,0 0.8,0.34 1,1 l 8.22,25.29 8.26,-25.36 c 0.16,-0.43 0.3,-0.93 0.96,-0.93 0.68,0 0.79,0.34 0.98,1 z" /></g></g><g
                   transform="translate(-203.67349,547.99111)"
                   id="g14817"><path
                     id="path9979"
                     d="m -19.428048,330.39719 0.078,0.27295 0.078,0.26244 0.0952,0.24145 0.0952,0.23096 0.0952,0.22046 0.10389,0.19945 0.11256,0.19947 0.11256,0.17845 0.12121,0.16797 0.12121,0.16797 0.12121,0.14697 0.13853,0.13647 0.12988,0.12598 0.13853,0.11548 0.13852,0.10498 0.14721,0.10497 0.13852,0.084 0.15584,0.0839 0.14719,0.0734 0.15584,0.0734 0.1472,0.0524 0.15584,0.0524 0.15585,0.0421 0.1645,0.042 0.15584,0.0316 0.15586,0.0315 0.16449,0.021 0.15586,0.021 0.32035,0.021 0.32035,0 0,1.62718 c -1.29006,-0.11549 -2.63207,-0.16797 -3.9308,-0.16797 -1.2381,0 -4.00005,0.11547 -5.12561,0.16797 l 0,-1.62718 c 2.88316,-0.0421 3.74897,-1.76365 3.74897,-2.77144 0,-0.30444 -0.12121,-0.73486 -0.21646,-1.0498 l -6.46762,-24.15564 -6.90053,25.61485 c -0.052,0.22046 -0.12988,0.5249 -0.12988,0.78734 0,1.57469 2.5022,1.57469 3.61909,1.57469 l 0,1.62718 c -1.54979,-0.16797 -4.4849,-0.16797 -6.12129,-0.16797 -1.63639,0 -3.49789,0.11547 -5.26414,0.16797 l 0,-1.62718 c 2.45891,0 3.368,0 3.87883,-1.87912 l 0.9524,-3.66377 -6.00008,-22.43399 -6.93518,25.73033 c -0.0433,0.14696 -0.0952,0.52489 -0.0952,0.67186 0,1.57469 2.50219,1.57469 3.62775,1.57469 l 0,1.62718 c -1.55846,-0.16797 -4.48491,-0.16797 -6.12995,-0.16797 -1.63639,0 -3.48923,0.11547 -5.26416,0.16797 l 0,-1.62718 c 3.24681,0 3.41131,-0.26244 3.93946,-2.19408 l 8.61484,-32.07104 c 0.13854,-0.45142 0.25976,-0.9763 0.82253,-0.9763 0.59742,0 0.69265,0.35693 0.86581,1.04979 l 7.11699,26.54916 7.16028,-26.62265 c 0.12987,-0.45142 0.25109,-0.9763 0.82252,-0.9763 0.59741,0 0.69265,0.35693 0.85716,1.04979 z"
                     inkscape:connector-curvature="0"
                     style="font-style:normal;font-variant:normal;font-weight:normal;font-stretch:normal;letter-spacing:normal;word-spacing:normal;text-anchor:start;fill:#000000;fill-opacity:1;fill-rule:evenodd;stroke:#000000;stroke-width:0;stroke-linecap:butt;stroke-linejoin:miter;stroke-miterlimit:10.43299961;stroke-dasharray:none;stroke-dashoffset:0;stroke-opacity:1" /><path
                     id="path9981"
                     d="m -10.09555,316.60938 0,4.69512 c 0,3.56603 1.6011811,5.50745 3.0616723,5.50745 0.1071921,0 0.6096548,0 1.1121174,-0.29243 -0.4086696,-0.15434 -1.0049253,-0.68234 -1.0049253,-1.68962 0,-0.93412 0.5359601,-1.74645 1.4336932,-1.74645 0.9647284,0 1.4671909,0.81233 1.4671909,1.78708 0,1.49465 -1.2327082,2.82683 -3.0080762,2.82683 -2.3314265,0 -5.1653153,-2.14449 -5.1653153,-6.43348 l 0,-4.6545 -2.639604,0 0,-1.25909 2.639604,0 0,-13.11063 c 0,-1.81142 -0.368473,-1.81142 -2.606106,-1.81142 l 0,-1.25909 c 1.306403,0.0406 2.874086,0.12996 3.805317,0.12996 1.3332005,0 2.9008838,0 4.2407841,-0.12996 l 0,1.25909 -0.7034478,0 c -2.4654165,0 -2.5324112,0.43864 -2.5324112,1.90077 l 0,13.02128 3.7986168,0 0,1.25909 z"
                     inkscape:connector-curvature="0"
                     style="font-style:normal;font-variant:normal;font-weight:normal;font-stretch:normal;letter-spacing:normal;word-spacing:normal;text-anchor:start;fill:#000000;fill-opacity:1;fill-rule:evenodd;stroke:#000000;stroke-width:0;stroke-linecap:butt;stroke-linejoin:miter;stroke-miterlimit:10.43299961;stroke-dasharray:none;stroke-dashoffset:0;stroke-opacity:1" /><path
                     id="path9983"
                     d="m -0.30874692,313.09208 0,-10.85242 c 0,-1.81142 -0.3684728,-1.81142 -2.60610558,-1.81142 l 0,-1.25909 c 1.1724124,0.0406 2.86738618,0.12996 3.76511868,0.12996 0.87093602,0 2.60610582,-0.0894 3.73832282,-0.12996 l 0,1.25909 c -2.230933,0 -2.5927076,0 -2.5927076,1.81142 l 0,7.44887 c 0,4.21586 2.3649246,6.47408 4.5020656,6.47408 2.103643,0 2.465417,-2.18511 2.465417,-4.49207 l 0,-9.43088 c 0,-1.81142 -0.361774,-1.81142 -2.606108,-1.81142 l 0,-1.25909 c 1.172413,0.0406 2.880787,0.12996 3.778519,0.12996 0.870936,0 2.599408,-0.0894 3.738322,-0.12996 l 0,1.25909 c -2.237634,0 -2.606105,0 -2.606105,1.81142 l 0,7.44887 c 0,4.21586 2.378322,6.47408 4.508763,6.47408 2.110343,0 2.472117,-2.18511 2.472117,-4.49207 l 0,-9.43088 c 0,-1.81142 -0.361774,-1.81142 -2.606105,-1.81142 l 0,-1.25909 c 1.165711,0.0406 2.867385,0.12996 3.771818,0.12996 0.864234,0 2.606106,-0.0894 3.731622,-0.12996 l 0,1.25909 c -1.721771,0 -2.559209,0 -2.592707,1.21843 l 0,7.72505 c 0,3.47667 0,4.73574 -1.038423,6.18164 -0.468964,0.69859 -1.567683,1.49466 -3.503837,1.49466 -2.807093,0 -4.274284,-2.42067 -4.837042,-3.95594 -0.468966,3.5173 -2.941081,3.95594 -4.44177,3.95594 -2.438617,0 -4.006301,-1.73833 -4.9375318,-4.23212 l 0,4.23212 -4.7097487,-0.43864 0,-1.25909 c 2.33142548,0 2.60610558,-0.27618 2.60610558,-2.25821 z"
                     inkscape:connector-curvature="0"
                     style="font-style:normal;font-variant:normal;font-weight:normal;font-stretch:normal;letter-spacing:normal;word-spacing:normal;text-anchor:start;fill:#000000;fill-opacity:1;fill-rule:evenodd;stroke:#000000;stroke-width:0;stroke-linecap:butt;stroke-linejoin:miter;stroke-miterlimit:10.43299961;stroke-dasharray:none;stroke-dashoffset:0;stroke-opacity:1" /><path
                     id="path9985"
                     d="m 34.950729,302.23966 0.0134,-0.15432 0.0201,-0.14623 0.0268,-0.15433 0.02681,-0.1462 0.0335,-0.15437 0.0335,-0.14619 0.04019,-0.14622 0.04688,-0.14623 0.05359,-0.1462 0.0536,-0.13811 0.0603,-0.14621 0.0603,-0.12996 0.06699,-0.12997 0.0737,-0.12997 0.0737,-0.12997 0.08039,-0.11373 0.08709,-0.11373 0.0871,-0.11372 0.09379,-0.10559 0.09379,-0.0975 0.100493,-0.0975 0.107191,-0.0812 0.107193,-0.0812 0.113891,-0.0731 0.120591,-0.0651 0.120592,-0.0568 0.12059,-0.0487 0.133991,-0.0407 0.133989,-0.0325 0.13399,-0.0244 0.140691,-0.0163 0.147388,-0.01 c 0.690048,0 2.733396,0.57671 2.733396,3.85033 l 0,2.25819 -0.837437,0 0,-2.25819 c 0,-2.34757 -0.830739,-2.59127 -1.205911,-2.59127 -1.098718,0 -1.232708,1.81145 -1.232708,2.01451 l 0,8.0987 c 0,1.70586 0,3.27361 -1.19251,4.77637 -1.313103,1.56775 -2.97458,2.21761 -4.575761,2.21761 -2.746795,0 -5.051423,-1.89269 -5.051423,-4.56517 0,-1.21034 0.669949,-1.90893 1.540884,-1.90893 0.931231,0 1.540886,0.81231 1.540886,1.86831 0,0.47926 -0.167487,1.81146 -1.708373,1.8683 0.904433,1.40529 2.532412,1.85206 3.604331,1.85206 1.64138,0 3.537339,-1.57587 3.537339,-5.18251 l 0,-1.49465 0,-0.85291 0,-4.0453 c 0,-3.85032 -2.398424,-5.21501 -3.90581,-5.21501 -1.63468,0 -3.001377,1.42154 -3.001377,3.43606 0,2.21759 1.400195,5.58868 6.907187,5.82425 l 0,0 0,0.85291 c -1.694975,-0.11373 -4.033101,-0.2437 -6.136743,-1.46215 -2.498916,-1.37279 -3.336353,-3.47668 -3.336353,-5.25564 0,-3.27359 3.235859,-4.28896 5.339502,-4.28896 2.204136,0 3.738321,1.61648 4.374776,3.51728 z"
                     inkscape:connector-curvature="0"
                     style="font-style:normal;font-variant:normal;font-weight:normal;font-stretch:normal;letter-spacing:normal;word-spacing:normal;text-anchor:start;fill:#000000;fill-opacity:1;fill-rule:evenodd;stroke:#000000;stroke-width:0;stroke-linecap:butt;stroke-linejoin:miter;stroke-miterlimit:10.43299961;stroke-dasharray:none;stroke-dashoffset:0;stroke-opacity:1" /><path
                     id="path9987"
                     d="m 50.131799,308.67313 0.187585,0.29244 0.200985,0.30055 0.200986,0.30868 0.200987,0.3168 0.408666,0.6336 0.207687,0.30867 0.200987,0.3168 0.207685,0.30055 0.19428,0.30056 0.194288,0.2843 0.187587,0.2762 0.09379,0.12997 0.0871,0.12996 0.0871,0.12996 0.0871,0.12185 0.0804,0.11372 0.08709,0.11374 0.0737,0.10558 0.0804,0.0975 c 1.031724,1.44591 2.40512,2.05515 3.972801,2.09575 l 0,1.25909 c -0.864235,-0.0812 -1.869155,-0.11374 -2.740091,-0.11374 -0.991526,0 -2.760195,0.0731 -3.202366,0.11374 l 0,-1.25909 c 0.703452,-0.073 0.971429,-0.59296 0.971429,-1.24283 0,-0.64985 -0.334973,-1.17784 -0.502461,-1.42152 l -2.070146,-3.15988 -2.599407,4.08589 c -0.301477,0.40617 -0.301477,0.49551 -0.301477,0.73922 0,0.60923 0.502462,0.95852 1.159014,0.99912 l 0,1.25909 c -0.857537,-0.0407 -3.061672,-0.11374 -3.597634,-0.11374 -0.703446,0 -2.271129,0.0325 -3.168863,0.11374 l 0,-1.25909 c 2.331428,0 2.371624,-0.0405 3.932607,-2.46129 l 3.309555,-5.21501 -3.142068,-4.82508 c -1.60118,-2.34759 -3.570833,-2.42067 -4.267582,-2.42067 l 0,-1.25909 c 0.864235,0.073 1.902659,0.12996 2.773594,0.12996 0.958029,0 2.364924,-0.0894 3.168864,-0.12996 l 0,1.25909 c -0.730245,0.11372 -0.971428,0.6417 -0.971428,1.25093 0,0.89353 0.971428,2.22573 3.001378,5.14192 l 2.54581,-4.04529 c 0.26128,-0.44679 0.703445,-1.09663 0.703445,-1.33219 0,-0.37367 -0.308174,-0.9829 -1.205906,-1.01537 l 0,-1.25909 c 0.991528,0.0406 2.867383,0.12996 3.597627,0.12996 0.904434,0 2.21084,-0.0568 3.202367,-0.12996 l 0,1.25909 c -1.795467,0 -2.391721,0.0731 -3.168868,1.25093 z"
                     inkscape:connector-curvature="0"
                     style="font-style:normal;font-variant:normal;font-weight:normal;font-stretch:normal;letter-spacing:normal;word-spacing:normal;text-anchor:start;fill:#000000;fill-opacity:1;fill-rule:evenodd;stroke:#000000;stroke-width:0;stroke-linecap:butt;stroke-linejoin:miter;stroke-miterlimit:10.43299961;stroke-dasharray:none;stroke-dashoffset:0;stroke-opacity:1" /></g><g
                   transform="matrix(1,0,0,-1.1643906,-388.56156,771.92371)"
                   id="g10225"><g
                     transform="translate(3.4604719,-1.0599658)"
                     id="g10785"><g
                       transform="translate(-194.28078,-558.60197)"
                       id="g10794"><path
                         id="path10229"
                         d="m 342.84178,329.48951 0.082,-0.23696 0.0821,-0.22785 0.10024,-0.20961 0.10025,-0.20051 0.10026,-0.19139 0.10936,-0.17317 0.11848,-0.17315 0.11849,-0.15494 0.12759,-0.14583 0.12759,-0.14581 0.12759,-0.1276 0.14582,-0.11848 0.13671,-0.10936 0.14583,-0.10026 0.14581,-0.0911 0.15495,-0.0911 0.14581,-0.073 0.16405,-0.0729 0.15493,-0.0638 0.16405,-0.0638 0.15494,-0.0456 0.16404,-0.0456 0.16406,-0.0365 0.17316,-0.0365 0.16404,-0.0274 0.16406,-0.0274 0.17315,-0.0182 0.16406,-0.0182 0.33721,-0.0182 0.33721,0 0,-1.41264 c -1.35796,0.10025 -2.7706,0.14581 -4.13768,0.14581 -1.30327,0 -4.21058,-0.10024 -5.39538,-0.14581 l 0,1.41264 c 3.0349,0.0365 3.94628,1.53111 3.94628,2.40604 0,0.26431 -0.12759,0.63797 -0.22785,0.9114 l -6.80802,20.97091 -7.26372,-22.23774 c -0.0547,-0.1914 -0.13671,-0.45569 -0.13671,-0.68354 0,-1.36707 2.63389,-1.36707 3.80957,-1.36707 l 0,-1.41264 c -1.63136,0.14581 -4.72095,0.14581 -6.44347,0.14581 -1.72251,0 -3.68199,-0.10024 -5.5412,-0.14581 l 0,1.41264 c 2.58833,0 3.54527,0 4.08298,1.63138 l 1.00253,3.18071 -6.31588,19.47626 -7.30018,-22.338 c -0.0456,-0.1276 -0.10025,-0.45569 -0.10025,-0.58328 0,-1.36707 2.63389,-1.36707 3.81869,-1.36707 l 0,-1.41264 c -1.64049,0.14581 -4.72096,0.14581 -6.45258,0.14581 -1.72252,0 -3.67288,-0.10024 -5.54122,-0.14581 l 0,1.41264 c 3.41769,0 3.59085,0.22784 4.1468,1.90479 l 9.06825,27.84274 c 0.14583,0.39189 0.27343,0.84759 0.86582,0.84759 0.62886,0 0.72911,-0.30988 0.91138,-0.91138 l 7.49157,-23.04888 7.53714,23.11267 c 0.1367,0.39189 0.2643,0.84759 0.86581,0.84759 0.62885,0 0.7291,-0.30988 0.90227,-0.91138 z"
                         inkscape:connector-curvature="0"
                         style="font-style:normal;font-variant:normal;font-weight:normal;font-stretch:normal;letter-spacing:normal;word-spacing:normal;text-anchor:start;fill:#000000;fill-opacity:1;fill-rule:evenodd;stroke:#000000;stroke-width:0;stroke-linecap:butt;stroke-linejoin:miter;stroke-miterlimit:10.43299961;stroke-dasharray:none;stroke-dashoffset:0;stroke-opacity:1" /><g
                         transform="matrix(0.50295761,0,0,0.50295761,166.47039,176.64462)"
                         id="g10778"><path
                           style="font-style:normal;font-variant:normal;font-weight:normal;font-stretch:normal;letter-spacing:normal;word-spacing:normal;text-anchor:start;fill:#000000;fill-opacity:1;fill-rule:evenodd;stroke:#000000;stroke-width:0;stroke-linecap:butt;stroke-linejoin:miter;stroke-miterlimit:10.43299961;stroke-dasharray:none;stroke-dashoffset:0;stroke-opacity:1"
                           inkscape:connector-curvature="0"
                           d="m 387.93896,321.62954 -32.37873,0 -0.99922,11.92677 1.32874,0 c 0.73347,-8.54646 1.53071,-10.28977 9.52441,-10.28977 0.95669,0 2.33858,0 2.87008,0.11693 1.11614,0.20197 1.11614,0.78662 1.11614,2.00906 l 0,27.90354 c 0,1.81772 0,2.54055 -5.57008,2.54055 l -2.12598,0 0,1.64764 c 2.17913,-0.17008 7.57913,-0.17008 10.02401,-0.17008 2.43426,0 7.88741,0 10.05591,0.17008 l 0,-1.64764 -2.12598,0 c -5.55945,0 -5.55945,-0.72283 -5.55945,-2.54055 l 0,-27.90354 c 0,-1.06299 0,-1.80709 0.96732,-2.00906 0.57402,-0.11693 2.00906,-0.11693 3.0189,-0.11693 7.9937,0 8.79094,1.74331 9.51378,10.28977 l 1.32874,0 z"
                           id="path10231" /><path
                           style="font-style:normal;font-variant:normal;font-weight:normal;font-stretch:normal;letter-spacing:normal;word-spacing:normal;text-anchor:start;fill:#000000;fill-opacity:1;fill-rule:evenodd;stroke:#000000;stroke-width:0;stroke-linecap:butt;stroke-linejoin:miter;stroke-miterlimit:10.43299961;stroke-dasharray:none;stroke-dashoffset:0;stroke-opacity:1"
                           inkscape:connector-curvature="0"
                           d="m 429.10865,339.53032 -0.0213,-1.00984 -0.0744,-0.98858 -0.1063,-0.97796 -0.15945,-0.95669 -0.20197,-0.94606 -0.23386,-0.91417 -0.287,-0.90355 -0.3189,-0.88228 -0.35079,-0.86102 -0.39331,-0.83977 -0.43582,-0.80787 -0.45709,-0.78662 -0.49961,-0.76535 -0.52086,-0.72284 -0.56339,-0.70157 -0.58464,-0.68032 -0.61654,-0.63779 -0.63779,-0.60591 -0.66969,-0.57401 -0.69094,-0.5315 -0.71221,-0.4996 -0.74409,-0.46772 -0.75473,-0.4252 -0.78661,-0.38267 -0.79725,-0.35079 -0.8185,-0.29764 -0.82913,-0.26575 -0.8504,-0.2126 -0.86102,-0.17008 -0.87165,-0.11692 -0.89292,-0.0744 -0.89291,-0.0213 0,1.32874 c 4.61339,0 12.18189,3.75236 12.18189,17.30551 0,14.03149 -7.24961,18.48543 -12.13937,18.48543 l 0,0 c -5.0811,0 -12.17126,-4.6559 -12.17126,-18.48543 0,-13.70197 7.73858,-17.30551 12.12874,-17.30551 l 0,-1.32874 c -9.49252,0 -17.58189,8.46141 -17.58189,19.37834 0,10.86378 8.16378,19.1126 17.58189,19.1126 9.63071,0 17.63504,-8.4189 17.63504,-19.1126 z"
                           id="path10233" /><path
                           style="font-style:normal;font-variant:normal;font-weight:normal;font-stretch:normal;letter-spacing:normal;word-spacing:normal;text-anchor:start;fill:#000000;fill-opacity:1;fill-rule:evenodd;stroke:#000000;stroke-width:0;stroke-linecap:butt;stroke-linejoin:miter;stroke-miterlimit:10.43299961;stroke-dasharray:none;stroke-dashoffset:0;stroke-opacity:1"
                           inkscape:connector-curvature="0"
                           d="m 437.95274,339.26457 0,14.20158 c 0,2.37047 -0.58464,2.37047 -4.13504,2.37047 l 0,1.64764 c 1.86024,-0.0532 4.54961,-0.17008 5.97402,-0.17008 1.38189,0 4.14567,0.11693 5.93149,0.17008 l 0,-1.64764 c -3.53976,0 -4.11377,0 -4.11377,-2.37047 l 0,-9.74764 c 0,-5.51693 3.75236,-8.47205 7.1433,-8.47205 3.3378,0 3.91181,2.85945 3.91181,5.87835 l 0,12.34134 c 0,2.37047 -0.57401,2.37047 -4.13504,2.37047 l 0,1.64764 c 1.86024,-0.0532 4.57087,-0.17008 5.99528,-0.17008 1.38189,0 4.12441,0.11693 5.9315,0.17008 l 0,-1.64764 c -3.5504,0 -4.13504,0 -4.13504,-2.37047 l 0,-9.74764 c 0,-5.51693 3.77362,-8.47205 7.16456,-8.47205 3.3378,0 3.91181,2.85945 3.91181,5.87835 l 0,12.34134 c 0,2.37047 -0.57401,2.37047 -4.13504,2.37047 l 0,1.64764 c 1.84961,-0.0532 4.54961,-0.17008 5.98465,-0.17008 1.37126,0 4.13504,0.11693 5.9315,0.17008 l 0,-1.64764 c -2.74252,0 -4.07126,0 -4.12441,-1.59449 l 0,-10.10905 c 0,-4.54961 0,-6.19725 -1.64764,-8.08937 -0.7441,-0.91417 -2.4874,-1.95591 -5.55945,-1.95591 -4.45394,0 -6.78189,3.16772 -7.6748,5.17677 -0.7441,-4.60275 -4.66654,-5.17677 -7.03701,-5.17677 -3.86929,0 -6.36732,2.27481 -7.84488,5.53819 l 0,-5.53819 -7.47284,0.57402 0,1.64764 c 3.69922,0 4.13504,0.36141 4.13504,2.95511 z"
                           id="path10235" /><path
                           style="font-style:normal;font-variant:normal;font-weight:normal;font-stretch:normal;letter-spacing:normal;word-spacing:normal;text-anchor:start;fill:#000000;fill-opacity:1;fill-rule:evenodd;stroke:#000000;stroke-width:0;stroke-linecap:butt;stroke-linejoin:miter;stroke-miterlimit:10.43299961;stroke-dasharray:none;stroke-dashoffset:0;stroke-opacity:1"
                           inkscape:connector-curvature="0"
                           d="m 493.89802,353.46615 0.0213,0.20197 0.0319,0.19134 0.0425,0.20196 0.0425,0.19134 0.0532,0.20197 0.0532,0.19134 0.0638,0.19134 0.0744,0.19134 0.085,0.19134 0.085,0.1807 0.0957,0.19134 0.0957,0.17008 0.1063,0.17008 0.11693,0.17008 0.11693,0.17008 0.12756,0.14882 0.13819,0.14882 0.13819,0.14881 0.14881,0.13819 0.14882,0.12756 0.15945,0.12756 0.17008,0.1063 0.17008,0.1063 0.18071,0.0957 0.19134,0.085 0.19134,0.0744 0.20196,0.0638 0.20197,0.0532 0.2126,0.0425 0.2126,0.0319 0.22323,0.0213 0.23386,0.0106 c 1.09488,0 4.337,-0.75473 4.337,-5.03859 l 0,-2.95511 -1.32874,0 0,2.95511 c 0,3.07205 -1.31811,3.39095 -1.91338,3.39095 -1.74331,0 -1.95591,-2.37047 -1.95591,-2.63622 l 0,-10.59803 c 0,-2.23229 0,-4.28386 -1.89212,-6.2504 -2.08347,-2.05157 -4.71969,-2.90196 -7.26024,-2.90196 -4.35827,0 -8.00433,2.47677 -8.00433,5.97401 0,1.58386 1.06299,2.49803 2.43425,2.49803 1.47756,0 2.44488,-1.06299 2.44488,-2.44488 0,-0.62716 -0.26574,-2.37047 -2.71063,-2.44488 1.43504,-1.83898 4.02874,-2.42362 5.7189,-2.42362 2.60433,0 5.6126,2.0622 5.6126,6.78189 l 0,1.9559 0,1.11614 0,5.2937 c 0,5.03859 -3.80551,6.82441 -6.19724,6.82441 -2.5937,0 -4.76221,-1.86023 -4.76221,-4.49645 0,-2.90197 2.22165,-7.31339 10.95945,-7.62166 l 0,0 0,-1.11614 c -2.68937,0.14882 -6.39921,0.3189 -9.73701,1.91339 -3.96496,1.79645 -5.2937,4.5496 -5.2937,6.87756 0,4.28385 5.13425,5.61259 8.47205,5.61259 3.50787,0 5.93149,-2.11535 6.94134,-4.60275 z"
                           id="path10237" /><path
                           style="font-style:normal;font-variant:normal;font-weight:normal;font-stretch:normal;letter-spacing:normal;word-spacing:normal;text-anchor:start;fill:#000000;fill-opacity:1;fill-rule:evenodd;stroke:#000000;stroke-width:0;stroke-linecap:butt;stroke-linejoin:miter;stroke-miterlimit:10.43299961;stroke-dasharray:none;stroke-dashoffset:0;stroke-opacity:1"
                           inkscape:connector-curvature="0"
                           d="m 517.98542,345.04725 0.29764,-0.38268 0.31889,-0.3933 0.3189,-0.40394 0.3189,-0.41457 0.64842,-0.82913 0.32953,-0.40394 0.32953,-0.41456 0.3189,-0.39331 0.30826,-0.39331 0.30827,-0.37205 0.29764,-0.36141 0.14882,-0.17008 0.13819,-0.17008 0.13819,-0.17008 0.13819,-0.15945 0.13818,-0.14882 0.12756,-0.14882 0.11693,-0.13818 0.12756,-0.12756 c 1.63701,-1.89213 3.81614,-2.68937 6.30354,-2.74252 l 0,-1.64764 c -1.37125,0.1063 -2.96574,0.14882 -4.34763,0.14882 -1.57323,0 -4.37953,-0.0957 -5.08111,-0.14882 l 0,1.64764 c 1.11615,0.0957 1.54134,0.77598 1.54134,1.62637 0,0.8504 -0.53149,1.54134 -0.79724,1.86024 l -3.28465,4.13504 -4.12441,-5.34685 c -0.47834,-0.5315 -0.47834,-0.64843 -0.47834,-0.96732 0,-0.79725 0.79724,-1.25433 1.8496,-1.30748 l 0,-1.64764 c -1.37126,0.0532 -4.8685,0.14882 -5.71889,0.14882 -1.11614,0 -3.60355,-0.0425 -5.02796,-0.14882 l 0,1.64764 c 3.69922,0 3.763,0.0532 6.23977,3.22086 l 5.25118,6.82441 -4.98543,6.31417 c -2.54056,3.07205 -5.66575,3.16772 -6.77126,3.16772 l 0,1.64764 c 1.37126,-0.0957 3.01889,-0.17008 4.40078,-0.17008 1.52008,0 3.75237,0.11693 5.02796,0.17008 l 0,-1.64764 c -1.15867,-0.14882 -1.54134,-0.83976 -1.54134,-1.63701 0,-1.16929 1.54134,-2.91259 4.7622,-6.72874 l 4.03937,5.2937 c 0.41457,0.58465 1.11614,1.43504 1.11614,1.74331 0,0.48898 -0.48897,1.28622 -1.91338,1.32874 l 0,1.64764 c 1.57323,-0.0532 4.5496,-0.17008 5.70827,-0.17008 1.43503,0 3.50787,0.0744 5.09173,0.17008 l 0,-1.64764 c -2.85945,0 -3.80551,-0.0957 -5.03858,-1.63701 z"
                           id="path10239" /></g></g></g></g><g
                   transform="matrix(0.5,0,0,0.5,129.36797,239.2568)"
                   id="g10740"><g
                     transform="matrix(1.045,0,0,1.045,4.0921433,-21.153593)"
                     id="g10756"><path
                       style="font-style:normal;font-variant:normal;font-weight:normal;font-stretch:normal;letter-spacing:normal;word-spacing:normal;text-anchor:start;fill:#000000;fill-opacity:1;fill-rule:evenodd;stroke:#000000;stroke-width:0;stroke-linecap:butt;stroke-linejoin:miter;stroke-miterlimit:10.43299961;stroke-dasharray:none;stroke-dashoffset:0;stroke-opacity:1"
                       inkscape:connector-curvature="0"
                       id="path10379"
                       d="m -103.40225,440.50713 -0.0319,0.0748 -0.0212,0.0749 -0.0213,0.0748 -0.0213,0.0624 -0.0213,0.0748 -0.0213,0.0624 -0.0213,0.0624 -0.0213,0.0499 -0.0319,0.0624 -0.0213,0.0499 -0.0213,0.0624 -0.0213,0.0499 -0.0319,0.0374 -0.0213,0.0499 -0.0319,0.0374 -0.0319,0.0499 -0.0319,0.0374 -0.0319,0.0374 -0.0319,0.0249 -0.0425,0.0374 -0.0425,0.0249 -0.0425,0.0249 -0.0425,0.025 -0.0425,0.0249 -0.0532,0.0125 -0.0532,0.0125 -0.0638,0.0249 -0.0638,0 -0.0638,0.0125 -0.0638,0.0125 -0.0744,0 -0.0425,0 -0.0319,0 c -0.85039,0 -1.02047,-0.37424 -1.28622,-1.24747 l -10.95945,-37.17445 c -0.94606,-3.15609 -3.07204,-4.09169 -5.93149,-4.14159 l 0,-1.93357 c 1.21181,0.0624 3.48661,0.1996 5.4,0.1996 1.64764,0 4.40079,-0.13722 6.10157,-0.1996 l 0,1.93357 c -2.64685,0 -3.97559,1.55933 -3.97559,3.15609 0,0.18712 0.0532,0.81085 0.1063,0.9356 l 2.43425,8.14595 0.58465,1.93357 5.9315,20.18398 5.97401,-20.18398 -11.90551,0 -0.58465,-1.93357 13.074807,0 2.806299,-9.51816 c 0.06378,-0.2495 0.170079,-0.62374 0.170079,-0.84828 0,-1.8712 -2.976378,-1.8712 -4.400785,-1.8712 l 0,-1.93357 c 1.902753,0.1996 5.612596,0.1996 7.632281,0.1996 2.274803,0 4.698425,-0.0873 6.930708,-0.1996 l 0,1.93357 -0.946063,0 c -3.188976,0 -3.922441,0.42414 -4.507086,2.46998 z" /><path
                       style="font-style:normal;font-variant:normal;font-weight:normal;font-stretch:normal;letter-spacing:normal;word-spacing:normal;text-anchor:start;fill:#000000;fill-opacity:1;fill-rule:evenodd;stroke:#000000;stroke-width:0;stroke-linecap:butt;stroke-linejoin:miter;stroke-miterlimit:10.43299961;stroke-dasharray:none;stroke-dashoffset:0;stroke-opacity:1"
                       inkscape:connector-curvature="0"
                       id="path10381"
                       d="m -75.977049,417.90307 0,6.81116 -7.355905,-0.67363 0,-1.93357 c 3.699212,0 4.135039,-0.42414 4.135039,-3.46796 l 0,-16.66613 c 0,-2.78185 -0.584646,-2.78185 -4.135039,-2.78185 l 0,-1.93357 c 2.072834,0.0624 4.549606,0.1996 6.037795,0.1996 2.115354,0 4.602756,0 6.72874,-0.1996 l 0,1.93357 -1.105512,0 c -3.922441,0 -4.03937,0.67363 -4.03937,2.91907 l 0,9.56806 c 0,6.13753 2.221653,11.67627 6.261023,11.67627 0.361418,0 0.467717,0 0.584646,-0.0624 -0.170079,-0.0499 -1.233071,-0.79838 -1.233071,-2.40761 0,-1.75893 1.116142,-2.66958 2.296063,-2.66958 0.946063,0 2.274803,0.73601 2.274803,2.71948 0,1.99594 -1.647637,3.77982 -3.922441,3.77982 -3.869291,0 -5.782677,-4.14159 -6.526771,-6.81116 z" /><path
                       style="font-style:normal;font-variant:normal;font-weight:normal;font-stretch:normal;letter-spacing:normal;word-spacing:normal;text-anchor:start;fill:#000000;fill-opacity:1;fill-rule:evenodd;stroke:#000000;stroke-width:0;stroke-linecap:butt;stroke-linejoin:miter;stroke-miterlimit:10.43299961;stroke-dasharray:none;stroke-dashoffset:0;stroke-opacity:1"
                       inkscape:connector-curvature="0"
                       id="path10383"
                       d="m -58.193191,418.63907 0,-16.66613 c 0,-2.78185 -0.584646,-2.78185 -4.13504,-2.78185 l 0,-1.93357 c 1.860237,0.0624 4.549607,0.1996 5.974016,0.1996 1.38189,0 4.135039,-0.13722 5.931496,-0.1996 l 0,1.93357 c -3.539764,0 -4.113779,0 -4.113779,2.78185 l 0,11.43925 c 0,6.47435 3.752362,9.9423 7.132677,9.9423 3.348425,0 3.92244,-3.35568 3.92244,-6.89848 l 0,-14.48307 c 0,-2.78185 -0.574015,-2.78185 -4.135039,-2.78185 l 0,-1.93357 c 1.860236,0.0624 4.570866,0.1996 5.995276,0.1996 1.381889,0 4.124409,-0.13722 5.931496,-0.1996 l 0,1.93357 c -3.550394,0 -4.13504,0 -4.13504,2.78185 l 0,11.43925 c 0,6.47435 3.773622,9.9423 7.164567,9.9423 3.327165,0 3.911811,-3.35568 3.911811,-6.89848 l 0,-14.48307 c 0,-2.78185 -0.584646,-2.78185 -4.135039,-2.78185 l 0,-1.93357 c 1.849606,0.0624 4.549606,0.1996 5.984645,0.1996 1.37126,0 4.135039,-0.13722 5.931496,-0.1996 l 0,1.93357 c -2.74252,0 -4.07126,0 -4.124409,1.8712 l 0,11.86339 c 0,5.33915 0,7.27272 -1.647638,9.49321 -0.744094,1.07282 -2.487402,2.29534 -5.559449,2.29534 -4.453937,0 -6.781889,-3.71745 -7.674803,-6.07516 -0.744094,5.40153 -4.666535,6.07516 -7.037007,6.07516 -3.879922,0 -6.367323,-2.66958 -7.844882,-6.49929 l 0,6.49929 -7.472835,-0.67363 0,-1.93357 c 3.699213,0 4.13504,-0.42414 4.13504,-3.46796 z" /><path
                       style="font-style:normal;font-variant:normal;font-weight:normal;font-stretch:normal;letter-spacing:normal;word-spacing:normal;text-anchor:start;fill:#000000;fill-opacity:1;fill-rule:evenodd;stroke:#000000;stroke-width:0;stroke-linecap:butt;stroke-linejoin:miter;stroke-miterlimit:10.43299961;stroke-dasharray:none;stroke-dashoffset:0;stroke-opacity:1"
                       inkscape:connector-curvature="0"
                       id="path10385"
                       d="m 5.0548387,410.5555 -0.01063,0.736 -0.04252,0.73601 -0.085039,0.72353 -0.095669,0.71105 -0.1381889,0.69858 -0.1594489,0.68611 -0.1807086,0.67363 -0.2125984,0.66116 -0.2338583,0.6362 -0.265748,0.62374 -0.276378,0.61125 -0.3082677,0.58631 -0.3295275,0.57384 -0.3507874,0.54888 -0.3720473,0.53641 -0.3826771,0.49899 -0.4145669,0.48651 -0.42519687,0.46156 -0.43582676,0.43661 -0.46771652,0.39919 -0.46771652,0.38672 -0.49960633,0.34929 -0.4996062,0.32434 -0.5208662,0.29939 -0.531496,0.26197 -0.542126,0.22454 -0.5527559,0.1996 -0.5633858,0.16217 -0.5740157,0.13722 -0.5846457,0.0873 -0.5846456,0.0624 -0.5952756,0.0125 -0.05315,-1.35974 c 2.3279527,0 4.6027558,-1.37221 5.9846455,-4.04179 1.3712598,-2.66957 1.3712598,-6.27475 1.3712598,-8.63245 0,-2.24544 0,-5.58865 -1.15866139,-8.3206 -1.16929131,-2.80679 -3.48661411,-4.60314 -6.14409431,-4.60314 l 0,0 c -2.2748031,0 -4.6027556,1.30984 -6.0271656,4.15406 -1.32874,2.74442 -1.32874,6.52424 -1.32874,8.76968 0,2.42008 0,5.77576 1.254331,8.52018 1.445669,2.84422 3.9224408,4.15406 6.048425,4.15406 l 0.05315,1.35974 c -6.611811,0 -11.767323,-6.76126 -11.767323,-14.53297 0,-8.0212 5.516929,-13.98408 11.7141734,-13.98408 6.40984233,0 11.7566926,6.08763 11.7566926,13.98408 z" /><path
                       style="font-style:normal;font-variant:normal;font-weight:normal;font-stretch:normal;letter-spacing:normal;word-spacing:normal;text-anchor:start;fill:#000000;fill-opacity:1;fill-rule:evenodd;stroke:#000000;stroke-width:0;stroke-linecap:butt;stroke-linejoin:miter;stroke-miterlimit:10.43299961;stroke-dasharray:none;stroke-dashoffset:0;stroke-opacity:1"
                       inkscape:connector-curvature="0"
                       id="path10387"
                       d="m 12.463894,418.63907 0,-16.66613 c 0,-2.78185 -0.574016,-2.78185 -4.1244097,-2.78185 l 0,-1.93357 c 1.8602357,0.0624 4.5496057,0.1996 5.9740157,0.1996 1.38189,0 4.135039,-0.13722 5.931496,-0.1996 l 0,1.93357 c -3.539764,0 -4.12441,0 -4.12441,2.78185 l 0,11.43925 c 0,6.47435 3.752363,9.9423 7.143307,9.9423 3.337796,0 3.922441,-3.35568 3.922441,-6.89848 l 0,-14.48307 c 0,-2.78185 -0.584645,-2.78185 -4.135039,-2.78185 l 0,-1.93357 c 1.860236,0.0624 4.560236,0.1996 5.995275,0.1996 1.38189,0 4.11378,-0.13722 5.931496,-0.1996 l 0,1.93357 c -2.763779,0 -4.092519,0 -4.135039,1.8712 l 0,11.86339 c 0,5.33915 0,7.27272 -1.647638,9.49321 -0.733464,1.07282 -2.487401,2.29534 -5.548818,2.29534 -3.869292,0 -6.356693,-2.66958 -7.834252,-6.4993 l 0,6.4993 -7.4728347,-0.67363 0,-1.93357 c 3.6992127,0 4.1244097,-0.42414 4.1244097,-3.46796 z" /><path
                       style="font-style:normal;font-variant:normal;font-weight:normal;font-stretch:normal;letter-spacing:normal;word-spacing:normal;text-anchor:start;fill:#000000;fill-opacity:1;fill-rule:evenodd;stroke:#000000;stroke-width:0;stroke-linecap:butt;stroke-linejoin:miter;stroke-miterlimit:10.43299961;stroke-dasharray:none;stroke-dashoffset:0;stroke-opacity:1"
                       inkscape:connector-curvature="0"
                       id="path10389"
                       d="m 45.469798,424.71423 -7.409055,-0.67363 0,-1.93357 c 3.444095,0 3.922441,-0.37424 3.922441,-3.40558 l 0,-16.72851 c 0,-2.78185 -0.584645,-2.78185 -4.135039,-2.78185 l 0,-1.93357 c 1.690157,0.0624 4.549606,0.1996 5.835827,0.1996 1.860236,0 3.699212,-0.13722 5.506299,-0.1996 l 0,1.93357 c -3.507874,0 -3.720473,0.31187 -3.720473,2.71948 z" /><path
                       style="font-style:normal;font-variant:normal;font-weight:normal;font-stretch:normal;letter-spacing:normal;word-spacing:normal;text-anchor:start;fill:#000000;fill-opacity:1;fill-rule:evenodd;stroke:#000000;stroke-width:0;stroke-linecap:butt;stroke-linejoin:miter;stroke-miterlimit:10.43299961;stroke-dasharray:none;stroke-dashoffset:0;stroke-opacity:1"
                       inkscape:connector-curvature="0"
                       id="path10391"
                       d="m 45.682397,435.54222 0,0.17465 -0.01063,0.18712 -0.02126,0.17464 -0.02126,0.17465 -0.03189,0.16217 -0.04252,0.16217 -0.04252,0.16217 -0.05315,0.1497 -0.06378,0.14969 -0.06378,0.1497 -0.06378,0.13722 -0.07441,0.12475 -0.08504,0.12474 -0.08504,0.12475 -0.08504,0.12474 -0.09567,0.0998 -0.106299,0.11227 -0.09567,0.0998 -0.1063,0.0873 -0.116929,0.0873 -0.116929,0.0873 -0.116929,0.0749 -0.116929,0.0624 -0.127559,0.0624 -0.116929,0.0499 -0.138189,0.0499 -0.127559,0.0374 -0.127559,0.0374 -0.138189,0.0249 -0.138189,0.0125 -0.138189,0.0125 -0.127559,0.0125 c -1.647638,0 -2.81693,-1.68408 -2.81693,-3.29331 0,-1.68407 1.169292,-3.2933 2.81693,-3.2933 1.466929,0 2.795669,1.29736 2.795669,3.2933 z" /><path
                       style="font-style:normal;font-variant:normal;font-weight:normal;font-stretch:normal;letter-spacing:normal;word-spacing:normal;text-anchor:start;fill:#000000;fill-opacity:1;fill-rule:evenodd;stroke:#000000;stroke-width:0;stroke-linecap:butt;stroke-linejoin:miter;stroke-miterlimit:10.43299961;stroke-dasharray:none;stroke-dashoffset:0;stroke-opacity:1"
                       inkscape:connector-curvature="0"
                       id="path10393"
                       d="m 56.971373,410.80499 0,0.47404 0.01063,0.44909 0.01063,0.44908 0.02126,0.43662 0.03189,0.42414 0.03189,0.42413 0.03189,0.39919 0.05315,0.39919 0.04252,0.38672 0.05315,0.37423 0.06378,0.36177 0.06378,0.36176 0.138189,0.68611 0.170078,0.63621 0.170079,0.61126 0.201969,0.57383 0.201968,0.53641 0.223229,0.49898 0.233858,0.47404 0.244488,0.43661 0.255118,0.39919 0.265748,0.37424 0.276378,0.34929 0.276378,0.32434 0.287008,0.28692 0.297638,0.26197 0.297637,0.23702 0.297638,0.19959 0.297638,0.18712 0.297638,0.16217 0.308268,0.1497 0.297637,0.11227 0.297638,0.0998 0.287008,0.0748 0.287008,0.0624 0.287008,0.0374 0.276378,0.0249 0.265748,0.0125 c 0.467716,0 3.805511,-0.0624 5.665748,-2.30782 -2.179134,-0.18711 -2.498032,-2.04584 -2.498032,-2.85669 0,-1.6217 0.946063,-2.86917 2.444882,-2.86917 1.36063,0 2.423622,1.07282 2.423622,2.91907 0,4.22891 -4.01811,6.64899 -8.1,6.64899 -6.611811,0 -11.501574,-6.69889 -11.501574,-14.40822 0,-7.94636 5.251181,-14.10883 11.395275,-14.10883 7.100787,0 8.790945,7.47231 8.790945,8.0711 0,0.62373 -0.531496,0.62373 -0.680315,0.62373 -0.478347,0 -0.584646,-0.23702 -0.701575,-0.62373 -1.530709,-5.76329 -4.964173,-6.51177 -6.920079,-6.51177 -2.816929,0 -7.472834,2.66957 -7.472834,12.67424 z" /><g
                       transform="translate(-193.29207,-50.602783)"
                       id="g10733"><path
                         d="m 115.01074,418.38958 0.47835,0.1497 0.46771,0.14969 0.46772,0.17465 0.45709,0.18712 0.44645,0.19959 0.43583,0.21207 0.43583,0.22454 0.42519,0.23702 0.40394,0.23702 0.40394,0.26197 0.38268,0.27444 0.38267,0.27444 0.36142,0.28692 0.35079,0.29939 0.32953,0.31187 0.32952,0.32434 0.29764,0.33681 0.29764,0.33682 0.27638,0.34929 0.25511,0.36176 0.24449,0.36177 0.22323,0.38671 0.20197,0.37424 0.18071,0.39919 0.17008,0.39919 0.13819,0.41166 0.12755,0.41167 0.1063,0.43661 0.0744,0.42414 0.0638,0.43661 0.0319,0.44909 0.0106,0.44909 c 0,5.96288 -6.02716,11.18976 -13.81889,11.18976 l -16.614571,0 0,-1.93357 1.254331,0 c 4.092519,0 4.188188,-0.67363 4.188188,-2.91907 l 0,-32.74596 c 0,-2.24544 -0.09567,-2.91907 -4.188188,-2.91907 l -1.254331,0 0,-1.93357 c 1.892126,0.1996 5.655118,0.1996 7.717321,0.1996 2.06221,0 5.83583,0 7.73858,-0.1996 l 0,1.93357 -1.27559,0 c -4.07126,0 -4.18819,0.67363 -4.18819,2.91907 l 0,15.70559 0,1.38468 0,16.07983 c 0,1.44706 0,2.18306 1.1693,2.38265 0.53149,0.11228 2.07283,0.11228 3.13582,0.11228 4.75158,0 10.6937,-0.2495 10.6937,-9.25619 0,-4.29128 -1.27559,-9.31857 -9.12047,-9.31857 l -5.87835,0 0,-1.38468 6.09095,0 c 0.85039,0 3.08268,0 4.92165,-2.09574 2.03032,-2.24544 2.03032,-4.17901 2.03032,-8.33307 0,-4.05426 0,-6.52424 2.15787,-8.88195 2.17914,-2.24544 5.0811,-2.6072 6.67559,-2.6072 4.13504,0 5.02795,5.07718 5.02795,6.8361 0,0.37424 0,1.04787 -0.68031,1.04787 -0.57402,0 -0.57402,-0.56135 -0.64843,-0.98549 -0.30826,-4.4285 -2.15787,-5.53875 -3.48661,-5.53875 -2.58307,0 -3.0189,3.18104 -3.77362,8.94433 l -0.66969,4.97738 c -0.95669,3.96694 -3.56102,6.03773 -6.46299,7.21035 z"
                         id="path10395"
                         inkscape:connector-curvature="0"
                         style="font-style:normal;font-variant:normal;font-weight:normal;font-stretch:normal;letter-spacing:normal;word-spacing:normal;text-anchor:start;fill:#000000;fill-opacity:1;fill-rule:evenodd;stroke:#000000;stroke-width:0;stroke-linecap:butt;stroke-linejoin:miter;stroke-miterlimit:10.43299961;stroke-dasharray:none;stroke-dashoffset:0;stroke-opacity:1" /><path
                         d="m 148.64381,401.97294 0.0213,-0.23702 0.0319,-0.22454 0.0319,-0.23702 0.0532,-0.22454 0.0531,-0.23702 0.0531,-0.22455 0.0638,-0.22454 0.0744,-0.22454 0.085,-0.22455 0.085,-0.21207 0.0957,-0.22454 0.0957,-0.19959 0.1063,-0.1996 0.11692,-0.19959 0.11693,-0.1996 0.12756,-0.17464 0.13819,-0.17465 0.13819,-0.17464 0.14882,-0.16217 0.14882,-0.1497 0.15945,-0.14969 0.17008,-0.12475 0.17007,-0.12475 0.18071,-0.11227 0.18071,-0.0998 0.20197,-0.0873 0.19134,-0.0748 0.2126,-0.0624 0.2126,-0.0499 0.21259,-0.0374 0.22323,-0.0249 0.23386,-0.0125 c 1.09488,0 4.33701,0.8857 4.33701,5.91299 l 0,3.46795 -1.32874,0 0,-3.46795 c 0,-3.60518 -1.31811,-3.97942 -1.91339,-3.97942 -1.7433,0 -1.96653,2.78185 -1.96653,3.09372 l 0,12.43722 c 0,2.61968 0,5.02729 -1.89213,7.3351 -2.07283,2.40761 -4.70905,3.40558 -7.2496,3.40558 -4.35827,0 -8.00434,-2.9066 -8.00434,-7.01076 0,-1.85872 1.063,-2.93154 2.43426,-2.93154 1.47756,0 2.44488,1.24747 2.44488,2.86917 0,0.736 -0.26575,2.78185 -2.71063,2.86917 1.42441,2.15811 4.01811,2.84422 5.7189,2.84422 2.60433,0 5.61259,-2.42008 5.61259,-7.95883 l 0,-2.29533 0,-1.30984 0,-6.21238 c 0,-5.91298 -3.80551,-8.00872 -6.19724,-8.00872 -2.5937,0 -4.77283,2.18306 -4.77283,5.27678 0,3.40558 2.23228,8.58255 10.97007,8.94432 l 0,0 0,1.30984 c -2.68937,-0.17465 -6.39921,-0.37424 -9.737,-2.24544 -3.96496,-2.10821 -5.2937,-5.33915 -5.2937,-8.0711 0,-5.02728 5.12362,-6.58661 8.47204,-6.58661 3.49725,0 5.92087,2.48245 6.94134,5.40152 z"
                         id="path10397"
                         inkscape:connector-curvature="0"
                         style="font-style:normal;font-variant:normal;font-weight:normal;font-stretch:normal;letter-spacing:normal;word-spacing:normal;text-anchor:start;fill:#000000;fill-opacity:1;fill-rule:evenodd;stroke:#000000;stroke-width:0;stroke-linecap:butt;stroke-linejoin:miter;stroke-miterlimit:10.43299961;stroke-dasharray:none;stroke-dashoffset:0;stroke-opacity:1" /><path
                         d="m 163.35562,418.63907 0,-16.66613 c 0,-2.78185 -0.57401,-2.78185 -4.13504,-2.78185 l 0,-1.93357 c 1.86024,0.0624 4.56024,0.1996 5.98465,0.1996 1.38189,0 4.13504,-0.13722 5.93149,-0.1996 l 0,1.93357 c -3.53976,0 -4.1244,0 -4.1244,2.78185 l 0,11.43925 c 0,6.47435 3.75236,9.9423 7.1433,9.9423 3.3378,0 3.92244,-3.35568 3.92244,-6.89848 l 0,-14.48307 c 0,-2.78185 -0.58464,-2.78185 -4.13504,-2.78185 l 0,-1.93357 c 1.86024,0.0624 4.56024,0.1996 5.99528,0.1996 1.38189,0 4.11378,-0.13722 5.93149,-0.1996 l 0,1.93357 c -2.76377,0 -4.09251,0 -4.13503,1.8712 l 0,11.86339 c 0,5.33915 0,7.27272 -1.64764,9.49321 -0.73347,1.07282 -2.4874,2.29534 -5.54882,2.29534 -3.86929,0 -6.35669,-2.66958 -7.83425,-6.4993 l 0,6.4993 -7.48347,-0.67363 0,-1.93357 c 3.70985,0 4.13504,-0.42414 4.13504,-3.46796 z"
                         id="path10399"
                         inkscape:connector-curvature="0"
                         style="font-style:normal;font-variant:normal;font-weight:normal;font-stretch:normal;letter-spacing:normal;word-spacing:normal;text-anchor:start;fill:#000000;fill-opacity:1;fill-rule:evenodd;stroke:#000000;stroke-width:0;stroke-linecap:butt;stroke-linejoin:miter;stroke-miterlimit:10.43299961;stroke-dasharray:none;stroke-dashoffset:0;stroke-opacity:1" /><path
                         d="m 192.60916,405.51574 0,0.0374 0,0.0249 0,0.0374 0,0.0499 0,0.0499 0.0106,0.0624 0,0.0624 0,0.0749 0.0106,0.0624 0.0106,0.0873 0,0.0748 0.0106,0.0873 0.0213,0.0873 0.0106,0.0998 0.0213,0.0998 0.0213,0.0998 0.0213,0.0998 0.0213,0.0998 0.0319,0.11228 0.0319,0.11227 0.0319,0.11227 0.0319,0.11227 0.0425,0.11227 0.0531,0.12475 0.0425,0.11227 0.0532,0.12475 0.0638,0.11227 0.0638,0.12475 0.0638,0.11227 0.0744,0.12475 0.0744,0.11227 0.0744,0.12474 c 2.08346,-1.73397 4.24134,-1.93357 5.25118,-1.93357 l 0,1.42211 c -4.61339,0 -4.61339,6.22485 -4.61339,7.65944 0,1.68408 0.0638,3.66755 0.83977,5.20193 0.43582,0.76095 1.64763,2.49493 3.77362,2.49493 4.60275,0 4.60275,-6.21238 4.60275,-7.63449 0,-1.6716 -0.0531,-3.66755 -0.85039,-5.22688 -0.41457,-0.736 -1.63701,-2.49493 -3.75236,-2.49493 l 0,0 0,-1.42211 c 4.92165,0 8.56772,4.29128 8.56772,9.08155 0,2.30781 -0.83977,4.60314 -2.15788,6.02525 1.89213,2.10822 3.80551,2.42009 4.77284,2.42009 0.0957,0 0.36141,0 0.53149,-0.0624 -0.6059,-0.24949 -0.85039,-0.9356 -0.85039,-1.6716 0,-1.06035 0.68031,-1.79635 1.53071,-1.79635 0.53149,0 1.53071,0.42414 1.53071,1.84625 0,1.06034 -0.6378,3.04381 -2.7,3.04381 -1.063,0 -3.38032,-0.37424 -5.6126,-2.90659 -2.22166,2.04584 -4.44331,2.22049 -5.6126,2.22049 -4.93228,0 -8.58898,-4.27881 -8.58898,-9.0566 0,-2.73195 1.16929,-5.10213 2.49803,-6.41197 -0.68031,-0.92312 -1.64763,-2.98144 -1.64763,-5.15203 0,-1.92109 0.70157,-4.2788 2.33858,-5.52627 -3.18898,-1.06034 -4.87913,-3.72992 -4.87913,-6.22485 0,-4.46592 5.25118,-7.89645 11.71417,-7.89645 l 0.0425,1.42211 c -5.34685,0 -9.00354,3.18103 -9.00354,6.47434 0,2.86917 2.00905,5.16451 4.35826,5.33915 l 3.11457,0 c 4.56024,0 10.4811,0 10.4811,-5.33915 0,-3.35568 -3.75236,-6.47434 -8.95039,-6.47434 l 0,0 -0.0425,-1.42211 c 6.23976,0 11.75669,3.18103 11.75669,8.0212 0,2.18306 -0.75472,5.35162 -3.44409,7.0856 -2.8063,1.73397 -5.87835,1.73397 -9.10985,1.73397 -1.32874,0 -3.61417,0 -3.97559,0.0624 -1.69015,0.24949 -2.8063,2.18306 -2.8063,4.16653 z"
                         id="path10401"
                         inkscape:connector-curvature="0"
                         style="font-style:normal;font-variant:normal;font-weight:normal;font-stretch:normal;letter-spacing:normal;word-spacing:normal;text-anchor:start;fill:#000000;fill-opacity:1;fill-rule:evenodd;stroke:#000000;stroke-width:0;stroke-linecap:butt;stroke-linejoin:miter;stroke-miterlimit:10.43299961;stroke-dasharray:none;stroke-dashoffset:0;stroke-opacity:1" /><path
                         d="m 219.4072,411.61585 0.0425,1.30983 c 0.31889,9.25619 4.77283,10.80305 6.57992,10.80305 5.45315,0 5.98464,-8.38296 5.98464,-10.80305 l -12.56456,0 -0.0425,-1.30983 14.77559,0 c 1.16929,0 1.31811,0 1.31811,1.30983 0,6.13753 -2.85945,12.16279 -9.47126,12.16279 -6.1441,0 -11.02323,-6.38702 -11.02323,-14.17121 0,-8.32059 5.55945,-14.34584 11.65039,-14.34584 6.46299,0 8.8441,6.89848 8.8441,8.0711 0,0.62373 -0.41457,0.76095 -0.68032,0.76095 -0.48898,0 -0.58464,-0.37424 -0.70157,-0.87323 -1.83898,-6.39949 -6.61181,-6.39949 -7.14331,-6.39949 -2.65748,0 -4.76221,1.85872 -5.97402,4.15406 -1.59448,2.98144 -1.59448,7.09807 -1.59448,9.33104 z"
                         id="path10403"
                         inkscape:connector-curvature="0"
                         style="font-style:normal;font-variant:normal;font-weight:normal;font-stretch:normal;letter-spacing:normal;word-spacing:normal;text-anchor:start;fill:#000000;fill-opacity:1;fill-rule:evenodd;stroke:#000000;stroke-width:0;stroke-linecap:butt;stroke-linejoin:miter;stroke-miterlimit:10.43299961;stroke-dasharray:none;stroke-dashoffset:0;stroke-opacity:1" /></g></g></g><g
                   transform="matrix(0.5,0,0,-0.6270032,-183.80673,627.72934)"
                   id="g10569"><g
                     transform="translate(637.71553,-51.179276)"
                     id="g10695"><path
                       style="font-style:normal;font-variant:normal;font-weight:normal;font-stretch:normal;letter-spacing:normal;word-spacing:normal;text-anchor:start;fill:#000000;fill-opacity:1;fill-rule:evenodd;stroke:#000000;stroke-width:0;stroke-linecap:butt;stroke-linejoin:miter;stroke-miterlimit:10.43299961;stroke-dasharray:none;stroke-dashoffset:0;stroke-opacity:1"
                       inkscape:connector-curvature="0"
                       d="m 310.94645,322.4693 -0.0213,-0.0531 -0.0213,-0.0532 -0.0213,-0.0425 -0.0213,-0.0531 -0.0425,-0.0957 -0.0319,-0.085 -0.0425,-0.0744 -0.0319,-0.0744 -0.0425,-0.0744 -0.0425,-0.0638 -0.0319,-0.0531 -0.0425,-0.0532 -0.0319,-0.0531 -0.0425,-0.0425 -0.0425,-0.0425 -0.0425,-0.0425 -0.0425,-0.0319 -0.0425,-0.0213 -0.0532,-0.0319 -0.0531,-0.0213 -0.0532,-0.0213 -0.0532,-0.0106 -0.0638,-0.0213 -0.0638,-0.0106 -0.0638,-0.0106 -0.0638,0 -0.0744,-0.0106 -0.085,0 -0.085,-0.0106 -0.085,0 -0.0957,0 -0.0957,0 -0.1063,0 -0.1063,0 -8.96102,0 0,1.64764 1.28622,0 c 4.06063,0 4.16693,0.57401 4.16693,2.4874 l 0,26.47913 c 0,1.42441 0,3.91181 -5.45315,3.91181 l 0,1.64764 c 1.86023,-0.0532 4.45393,-0.17008 6.19724,-0.17008 1.74331,0 4.35827,0.11693 6.19724,0.17008 l 0,-1.64764 c -5.45314,0 -5.45314,-2.4874 -5.45314,-3.91181 l 0,-28.54134 0.0531,0 12.75591,32.94213 c 0.26575,0.68031 0.5315,1.15866 1.06299,1.15866 0.58465,0 0.7441,-0.43583 0.94607,-1.00984 l 13.04291,-33.51614 0.0425,0 0,30.39094 c 0,1.91339 -0.0957,2.4874 -4.17756,2.4874 l -1.26496,0 0,1.64764 c 1.9559,-0.17008 5.54882,-0.17008 7.62165,-0.17008 2.06221,0 5.6126,0 7.57914,0.17008 l 0,-1.64764 -1.28623,0 c -4.06062,0 -4.17755,-0.57401 -4.17755,-2.4874 l 0,-27.90354 c 0,-1.91339 0.11693,-2.4874 4.17755,-2.4874 l 1.28623,0 0,-1.64764 -8.96103,0 c -1.37126,0 -1.37126,0.0532 -1.74331,1.00984 l -11.60787,29.81693 z"
                       id="path10573" /><path
                       style="font-style:normal;font-variant:normal;font-weight:normal;font-stretch:normal;letter-spacing:normal;word-spacing:normal;text-anchor:start;fill:#000000;fill-opacity:1;fill-rule:evenodd;stroke:#000000;stroke-width:0;stroke-linecap:butt;stroke-linejoin:miter;stroke-miterlimit:10.43299961;stroke-dasharray:none;stroke-dashoffset:0;stroke-opacity:1"
                       inkscape:connector-curvature="0"
                       d="m 364.42558,353.46615 0.0213,0.20197 0.0319,0.19134 0.0425,0.20196 0.0425,0.19134 0.0532,0.20197 0.0638,0.19134 0.0638,0.19134 0.0744,0.19134 0.0744,0.19134 0.085,0.1807 0.0957,0.19134 0.0957,0.17008 0.1063,0.17008 0.11693,0.17008 0.12756,0.17008 0.11693,0.14882 0.13819,0.14882 0.13819,0.14881 0.14882,0.13819 0.15945,0.12756 0.15944,0.12756 0.15945,0.1063 0.18071,0.1063 0.17008,0.0957 0.19134,0.085 0.19134,0.0744 0.20197,0.0638 0.20196,0.0532 0.2126,0.0425 0.22323,0.0319 0.22323,0.0213 0.22323,0.0106 c 1.09488,0 4.33701,-0.75473 4.33701,-5.03859 l 0,-2.95511 -1.32874,0 0,2.95511 c 0,3.07205 -1.30748,3.39095 -1.91339,3.39095 -1.74331,0 -1.95591,-2.37047 -1.95591,-2.63622 l 0,-10.59803 c 0,-2.23229 0,-4.28386 -1.89212,-6.2504 -2.07284,-2.05157 -4.71969,-2.90196 -7.26024,-2.90196 -4.34763,0 -8.00433,2.47677 -8.00433,5.97401 0,1.58386 1.06299,2.49803 2.44488,2.49803 1.47756,0 2.43426,-1.06299 2.43426,-2.44488 0,-0.62716 -0.26575,-2.37047 -2.7,-2.44488 1.42441,-1.83898 4.01811,-2.42362 5.70826,-2.42362 2.61496,0 5.6126,2.0622 5.6126,6.78189 l 0,1.9559 0,1.11614 0,5.2937 c 0,5.03859 -3.79488,6.82441 -6.19724,6.82441 -2.58307,0 -4.76221,-1.86023 -4.76221,-4.49645 0,-2.90197 2.22166,-7.31339 10.95945,-7.62166 l 0,0 0,-1.11614 c -2.68937,0.14882 -6.38858,0.3189 -9.72638,1.91339 -3.97559,1.79645 -5.30433,4.5496 -5.30433,6.87756 0,4.28385 5.13426,5.61259 8.47205,5.61259 3.50787,0 5.9315,-2.11535 6.94134,-4.60275 z"
                       id="path10575" /><path
                       style="font-style:normal;font-variant:normal;font-weight:normal;font-stretch:normal;letter-spacing:normal;word-spacing:normal;text-anchor:start;fill:#000000;fill-opacity:1;fill-rule:evenodd;stroke:#000000;stroke-width:0;stroke-linecap:butt;stroke-linejoin:miter;stroke-miterlimit:10.43299961;stroke-dasharray:none;stroke-dashoffset:0;stroke-opacity:1"
                       inkscape:connector-curvature="0"
                       d="m 388.51298,345.04725 0.30827,-0.38268 0.30827,-0.3933 0.31889,-0.40394 0.3189,-0.41457 0.65906,-0.82913 0.31889,-0.40394 0.32953,-0.41456 0.3189,-0.39331 0.3189,-0.39331 0.29763,-0.37205 0.29764,-0.36141 0.14882,-0.17008 0.14882,-0.17008 0.13819,-0.17008 0.12756,-0.15945 0.13819,-0.14882 0.12756,-0.14882 0.12755,-0.13818 0.11693,-0.12756 c 1.64764,-1.89213 3.81615,-2.68937 6.31418,-2.74252 l 0,-1.64764 c -1.38189,0.1063 -2.97638,0.14882 -4.35827,0.14882 -1.57323,0 -4.37953,-0.0957 -5.0811,-0.14882 l 0,1.64764 c 1.11614,0.0957 1.55197,0.77598 1.55197,1.62637 0,0.8504 -0.5315,1.54134 -0.79725,1.86024 l -3.29527,4.13504 -4.11378,-5.34685 c -0.48898,-0.5315 -0.48898,-0.64843 -0.48898,-0.96732 0,-0.79725 0.79724,-1.25433 1.84961,-1.30748 l 0,-1.64764 c -1.36063,0.0532 -4.86851,0.14882 -5.7189,0.14882 -1.10551,0 -3.60354,-0.0425 -5.02795,-0.14882 l 0,1.64764 c 3.69921,0 3.77362,0.0532 6.23976,3.22086 l 5.25118,6.82441 -4.98543,6.31417 c -2.54055,3.07205 -5.65512,3.16772 -6.77126,3.16772 l 0,1.64764 c 1.38189,-0.0957 3.0189,-0.17008 4.40079,-0.17008 1.5307,0 3.75236,0.11693 5.02795,0.17008 l 0,-1.64764 c -1.15866,-0.14882 -1.54134,-0.83976 -1.54134,-1.63701 0,-1.16929 1.54134,-2.91259 4.77283,-6.72874 l 4.02874,5.2937 c 0.41457,0.58465 1.11615,1.43504 1.11615,1.74331 0,0.48898 -0.47835,1.28622 -1.91339,1.32874 l 0,1.64764 c 1.58386,-0.0532 4.54961,-0.17008 5.7189,-0.17008 1.42441,0 3.49724,0.0744 5.0811,0.17008 l 0,-1.64764 c -2.85945,0 -3.80551,-0.0957 -5.03858,-1.63701 z"
                       id="path10577" /><g
                       id="g10688"
                       transform="translate(-140.39629,44.289758)"><path
                         id="path10579"
                         d="m 441.88581,339.47717 0.47835,-0.12756 0.47835,-0.12756 0.45708,-0.14881 0.45709,-0.15945 0.45709,-0.17008 0.43582,-0.18071 0.43583,-0.19134 0.41457,-0.20197 0.41456,-0.20197 0.39331,-0.22322 0.39331,-0.23386 0.37204,-0.23386 0.37205,-0.24449 0.34016,-0.25512 0.34016,-0.26575 0.31889,-0.27637 0.30827,-0.28701 0.29764,-0.28701 0.26575,-0.29764 0.26575,-0.30826 0.23385,-0.30827 0.22323,-0.32953 0.20197,-0.3189 0.19134,-0.34015 0.15945,-0.34016 0.14882,-0.35079 0.12756,-0.35079 0.1063,-0.37204 0.0744,-0.36142 0.0638,-0.37205 0.0319,-0.38268 0.0106,-0.38267 c 0,-5.08111 -6.02716,-9.53504 -13.81889,-9.53504 l -16.6252,0 0,1.64764 1.26496,0 c 4.08189,0 4.18819,0.57401 4.18819,2.4874 l 0,27.90354 c 0,1.91339 -0.1063,2.4874 -4.18819,2.4874 l -1.26496,0 0,1.64764 c 1.89213,-0.17008 5.66575,-0.17008 7.72795,-0.17008 2.05158,0 5.8252,0 7.73859,0.17008 l 0,-1.64764 -1.27559,0 c -4.07126,0 -4.18819,-0.57401 -4.18819,-2.4874 l 0,-13.38307 0,-1.17992 0,-13.70197 c 0,-1.23307 0,-1.86024 1.15866,-2.03032 0.53149,-0.0957 2.07283,-0.0957 3.13582,-0.0957 4.75158,0 10.70434,0.21259 10.70434,7.8874 0,3.65669 -1.28623,7.94055 -9.12048,7.94055 l -5.87834,0 0,1.17992 6.09094,0 c 0.85039,0 3.07205,0 4.92165,1.78583 2.01969,1.91338 2.01969,3.56102 2.01969,7.10078 0,3.45473 0,5.55945 2.15787,7.56851 2.17914,1.91338 5.09174,2.22165 6.68622,2.22165 4.13504,0 5.02796,-4.32638 5.02796,-5.8252 0,-0.31889 0,-0.89291 -0.68032,-0.89291 -0.58464,0 -0.58464,0.47835 -0.64842,0.83976 -0.3189,3.77363 -2.15788,4.71969 -3.48662,4.71969 -2.5937,0 -3.0189,-2.71063 -3.77362,-7.62165 l -0.68031,-4.24134 c -0.94607,-3.38032 -3.5504,-5.14488 -6.463,-6.1441 z"
                         inkscape:connector-curvature="0"
                         style="font-style:normal;font-variant:normal;font-weight:normal;font-stretch:normal;letter-spacing:normal;word-spacing:normal;text-anchor:start;fill:#000000;fill-opacity:1;fill-rule:evenodd;stroke:#000000;stroke-width:0;stroke-linecap:butt;stroke-linejoin:miter;stroke-miterlimit:10.43299961;stroke-dasharray:none;stroke-dashoffset:0;stroke-opacity:1" /><path
                         id="path10581"
                         d="m 475.51888,353.46615 0.0319,0.20197 0.0319,0.19134 0.0319,0.20196 0.0425,0.19134 0.0532,0.20197 0.0638,0.19134 0.0638,0.19134 0.0744,0.19134 0.0744,0.19134 0.085,0.1807 0.0957,0.19134 0.1063,0.17008 0.1063,0.17008 0.1063,0.17008 0.12756,0.17008 0.12755,0.14882 0.12756,0.14882 0.13819,0.14881 0.14882,0.13819 0.15945,0.12756 0.15945,0.12756 0.15945,0.1063 0.18071,0.1063 0.18071,0.0957 0.1807,0.085 0.19134,0.0744 0.20197,0.0638 0.20197,0.0532 0.2126,0.0425 0.22323,0.0319 0.22322,0.0213 0.22323,0.0106 c 1.10551,0 4.33701,-0.75473 4.33701,-5.03859 l 0,-2.95511 -1.32874,0 0,2.95511 c 0,3.07205 -1.30748,3.39095 -1.90276,3.39095 -1.7433,0 -1.96653,-2.37047 -1.96653,-2.63622 l 0,-10.59803 c 0,-2.23229 0,-4.28386 -1.89213,-6.2504 -2.07283,-2.05157 -4.71968,-2.90196 -7.26023,-2.90196 -4.34764,0 -8.00433,2.47677 -8.00433,5.97401 0,1.58386 1.06299,2.49803 2.44488,2.49803 1.47756,0 2.44488,-1.06299 2.44488,-2.44488 0,-0.62716 -0.26575,-2.37047 -2.71063,-2.44488 1.42441,-1.83898 4.01811,-2.42362 5.70827,-2.42362 2.61496,0 5.6126,2.0622 5.6126,6.78189 l 0,1.9559 0,1.11614 0,5.2937 c 0,5.03859 -3.79489,6.82441 -6.18662,6.82441 -2.5937,0 -4.77283,-1.86023 -4.77283,-4.49645 0,-2.90197 2.23228,-7.31339 10.95945,-7.62166 l 0,0 0,-1.11614 c -2.68937,0.14882 -6.38859,0.3189 -9.72638,1.91339 -3.97559,1.79645 -5.30433,4.5496 -5.30433,6.87756 0,4.28385 5.13425,5.61259 8.47205,5.61259 3.50787,0 5.93149,-2.11535 6.94133,-4.60275 z"
                         inkscape:connector-curvature="0"
                         style="font-style:normal;font-variant:normal;font-weight:normal;font-stretch:normal;letter-spacing:normal;word-spacing:normal;text-anchor:start;fill:#000000;fill-opacity:1;fill-rule:evenodd;stroke:#000000;stroke-width:0;stroke-linecap:butt;stroke-linejoin:miter;stroke-miterlimit:10.43299961;stroke-dasharray:none;stroke-dashoffset:0;stroke-opacity:1" /><path
                         id="path10583"
                         d="m 490.24132,339.26457 0,14.20158 c 0,2.37047 -0.57401,2.37047 -4.13504,2.37047 l 0,1.64764 c 1.86024,-0.0532 4.54961,-0.17008 5.98465,-0.17008 1.37126,0 4.13504,0.11693 5.92087,0.17008 l 0,-1.64764 c -3.52914,0 -4.11378,0 -4.11378,-2.37047 l 0,-9.74764 c 0,-5.51693 3.75236,-8.47205 7.1433,-8.47205 3.3378,0 3.91181,2.85945 3.91181,5.87835 l 0,12.34134 c 0,2.37047 -0.57401,2.37047 -4.1244,2.37047 l 0,1.64764 c 1.86023,-0.0532 4.56023,-0.17008 5.98464,-0.17008 1.38189,0 4.12441,0.11693 5.9315,0.17008 l 0,-1.64764 c -2.75315,0 -4.08189,0 -4.13504,-1.59449 l 0,-10.10905 c 0,-4.54961 0,-6.19725 -1.63701,-8.08937 -0.73346,-0.91417 -2.49803,-1.95591 -5.54882,-1.95591 -3.86929,0 -6.36732,2.27481 -7.84488,5.53819 l 0,-5.53819 -7.47284,0.57402 0,1.64764 c 3.69922,0 4.13504,0.36141 4.13504,2.95511 z"
                         inkscape:connector-curvature="0"
                         style="font-style:normal;font-variant:normal;font-weight:normal;font-stretch:normal;letter-spacing:normal;word-spacing:normal;text-anchor:start;fill:#000000;fill-opacity:1;fill-rule:evenodd;stroke:#000000;stroke-width:0;stroke-linecap:butt;stroke-linejoin:miter;stroke-miterlimit:10.43299961;stroke-dasharray:none;stroke-dashoffset:0;stroke-opacity:1" /><path
                         id="path10585"
                         d="m 519.49487,350.44725 0,-0.0319 0,-0.0213 0,-0.0319 0,-0.0425 0,-0.0425 0,-0.0532 0.0106,-0.0532 0,-0.0638 0.0106,-0.0532 0,-0.0744 0.0106,-0.0638 0.0106,-0.0744 0.0106,-0.0744 0.0213,-0.085 0.0106,-0.085 0.0213,-0.085 0.0213,-0.085 0.0319,-0.085 0.0213,-0.0957 0.0319,-0.0957 0.0425,-0.0957 0.0319,-0.0957 0.0425,-0.0957 0.0425,-0.1063 0.0532,-0.0957 0.0531,-0.10629 0.0531,-0.0957 0.0638,-0.1063 0.0744,-0.0957 0.0638,-0.1063 0.0744,-0.0957 0.085,-0.1063 c 2.07283,1.47756 4.23071,1.64764 5.25118,1.64764 l 0,-1.21181 c -4.61338,0 -4.61338,-5.30433 -4.61338,-6.52677 0,-1.43504 0.0638,-3.1252 0.83976,-4.43268 0.43583,-0.64843 1.64764,-2.12599 3.77362,-2.12599 4.60276,0 4.60276,5.2937 4.60276,6.50552 0,1.4244 -0.0531,3.12519 -0.8504,4.45393 -0.41456,0.62717 -1.64763,2.12599 -3.75236,2.12599 l 0,0 0,1.21181 c 4.91102,0 8.56772,-3.6567 8.56772,-7.73858 0,-1.96654 -0.8504,-3.92245 -2.15788,-5.13426 1.89213,-1.79645 3.80552,-2.0622 4.76221,-2.0622 0.1063,0 0.37205,0 0.53149,0.0532 -0.59527,0.2126 -0.83976,0.79724 -0.83976,1.42441 0,0.90354 0.68032,1.53071 1.53071,1.53071 0.53149,0 1.52008,-0.36142 1.52008,-1.57323 0,-0.90355 -0.62717,-2.5937 -2.68937,-2.5937 -1.06299,0 -3.39095,0.31889 -5.6126,2.47677 -2.22165,-1.74331 -4.45394,-1.89213 -5.6126,-1.89213 -4.93228,0 -8.58898,3.64607 -8.58898,7.71733 0,2.32795 1.15867,4.34763 2.48741,5.46377 -0.68032,0.78662 -1.63701,2.54056 -1.63701,4.39016 0,1.63701 0.69094,3.64607 2.33858,4.70906 -3.18898,0.90354 -4.87913,3.17834 -4.87913,5.30433 0,3.80551 5.24055,6.72874 11.70354,6.72874 l 0.0532,-1.21181 c -5.34685,0 -9.00354,-2.71063 -9.00354,-5.51693 0,-2.44488 2.00905,-4.40079 4.34763,-4.54961 l 3.1252,0 c 4.54961,0 10.4811,0 10.4811,4.54961 0,2.85945 -3.75236,5.51693 -8.95039,5.51693 l 0,0 -0.0532,1.21181 c 6.25039,0 11.76732,-2.71063 11.76732,-6.83504 0,-1.86024 -0.75472,-4.56024 -3.44409,-6.0378 -2.8063,-1.47756 -5.87835,-1.47756 -9.12047,-1.47756 -1.32874,0 -3.60355,0 -3.96496,-0.0532 -1.70079,-0.21259 -2.8063,-1.86023 -2.8063,-3.55039 z"
                         inkscape:connector-curvature="0"
                         style="font-style:normal;font-variant:normal;font-weight:normal;font-stretch:normal;letter-spacing:normal;word-spacing:normal;text-anchor:start;fill:#000000;fill-opacity:1;fill-rule:evenodd;stroke:#000000;stroke-width:0;stroke-linecap:butt;stroke-linejoin:miter;stroke-miterlimit:10.43299961;stroke-dasharray:none;stroke-dashoffset:0;stroke-opacity:1" /><path
                         id="path10587"
                         d="m 546.28227,345.24922 0.0531,-1.11614 c 0.31889,-7.8874 4.77283,-9.20551 6.57992,-9.20551 5.44252,0 5.97401,7.1433 5.97401,9.20551 l -12.55393,0 -0.0531,1.11614 14.78622,0 c 1.15866,0 1.30748,0 1.30748,-1.11614 0,-5.22992 -2.84882,-10.36417 -9.46063,-10.36417 -6.1441,0 -11.03386,5.44251 -11.03386,12.07559 0,7.09015 5.57008,12.2244 11.66102,12.2244 6.463,0 8.83347,-5.87834 8.83347,-6.87755 0,-0.5315 -0.41457,-0.64843 -0.68032,-0.64843 -0.47834,0 -0.57401,0.3189 -0.69094,0.7441 -1.84961,5.45314 -6.61181,5.45314 -7.14331,5.45314 -2.65748,0 -4.77283,-1.58385 -5.98464,-3.53976 -1.59449,-2.54055 -1.59449,-6.04842 -1.59449,-7.95118 z"
                         inkscape:connector-curvature="0"
                         style="font-style:normal;font-variant:normal;font-weight:normal;font-stretch:normal;letter-spacing:normal;word-spacing:normal;text-anchor:start;fill:#000000;fill-opacity:1;fill-rule:evenodd;stroke:#000000;stroke-width:0;stroke-linecap:butt;stroke-linejoin:miter;stroke-miterlimit:10.43299961;stroke-dasharray:none;stroke-dashoffset:0;stroke-opacity:1" /></g></g></g><g
                   id="g10807"
                   transform="matrix(1,0,0,-1.1643906,-589.26894,1284.1226)"><g
                     id="g10811"
                     transform="matrix(0.50295761,0,0,0.50295761,166.47039,176.64462)"><g
                       transform="matrix(0.48652132,-0.42951409,0.37370443,0.48652133,590.75731,182.60982)"
                       id="g14793"><path
                         transform="matrix(1.9882391,0,0,1.9882391,-330.98295,-351.21174)"
                         id="path10809"
                         d="m 342.84178,329.48951 0.082,-0.23696 0.0821,-0.22785 0.10024,-0.20961 0.10025,-0.20051 0.10026,-0.19139 0.10936,-0.17317 0.11848,-0.17315 0.11849,-0.15494 0.12759,-0.14583 0.12759,-0.14581 0.12759,-0.1276 0.14582,-0.11848 0.13671,-0.10936 0.14583,-0.10026 0.14581,-0.0911 0.15495,-0.0911 0.14581,-0.073 0.16405,-0.0729 0.15493,-0.0638 0.16405,-0.0638 0.15494,-0.0456 0.16404,-0.0456 0.16406,-0.0365 0.17316,-0.0365 0.16404,-0.0274 0.16406,-0.0274 0.17315,-0.0182 0.16406,-0.0182 0.33721,-0.0182 0.33721,0 0,-1.41264 c -1.35796,0.10025 -2.7706,0.14581 -4.13768,0.14581 -1.30327,0 -4.21058,-0.10024 -5.39538,-0.14581 l 0,1.41264 c 3.0349,0.0365 3.94628,1.53111 3.94628,2.40604 0,0.26431 -0.12759,0.63797 -0.22785,0.9114 l -6.80802,20.97091 -7.26372,-22.23774 c -0.0547,-0.1914 -0.13671,-0.45569 -0.13671,-0.68354 0,-1.36707 2.63389,-1.36707 3.80957,-1.36707 l 0,-1.41264 c -1.63136,0.14581 -4.72095,0.14581 -6.44347,0.14581 -1.72251,0 -3.68199,-0.10024 -5.5412,-0.14581 l 0,1.41264 c 2.58833,0 3.54527,0 4.08298,1.63138 l 1.00253,3.18071 -6.31588,19.47626 -7.30018,-22.338 c -0.0456,-0.1276 -0.10025,-0.45569 -0.10025,-0.58328 0,-1.36707 2.63389,-1.36707 3.81869,-1.36707 l 0,-1.41264 c -1.64049,0.14581 -4.72096,0.14581 -6.45258,0.14581 -1.72252,0 -3.67288,-0.10024 -5.54122,-0.14581 l 0,1.41264 c 3.41769,0 3.59085,0.22784 4.1468,1.90479 l 9.06825,27.84274 c 0.14583,0.39189 0.27343,0.84759 0.86582,0.84759 0.62886,0 0.72911,-0.30988 0.91138,-0.91138 l 7.49157,-23.04888 7.53714,23.11267 c 0.1367,0.39189 0.2643,0.84759 0.86581,0.84759 0.62885,0 0.7291,-0.30988 0.90227,-0.91138 z"
                         inkscape:connector-curvature="0"
                         style="font-style:normal;font-variant:normal;font-weight:normal;font-stretch:normal;letter-spacing:normal;word-spacing:normal;text-anchor:start;fill:#000000;fill-opacity:1;fill-rule:evenodd;stroke:#000000;stroke-width:0;stroke-linecap:butt;stroke-linejoin:miter;stroke-miterlimit:10.43299961;stroke-dasharray:none;stroke-dashoffset:0;stroke-opacity:1" /><path
                         style="font-style:normal;font-variant:normal;font-weight:normal;font-stretch:normal;letter-spacing:normal;word-spacing:normal;text-anchor:start;fill:#000000;fill-opacity:1;fill-rule:evenodd;stroke:#000000;stroke-width:0;stroke-linecap:butt;stroke-linejoin:miter;stroke-miterlimit:10.43299961;stroke-dasharray:none;stroke-dashoffset:0;stroke-opacity:1"
                         inkscape:connector-curvature="0"
                         d="m 387.93896,321.62954 -32.37873,0 -0.99922,11.92677 1.32874,0 c 0.73347,-8.54646 1.53071,-10.28977 9.52441,-10.28977 0.95669,0 2.33858,0 2.87008,0.11693 1.11614,0.20197 1.11614,0.78662 1.11614,2.00906 l 0,27.90354 c 0,1.81772 0,2.54055 -5.57008,2.54055 l -2.12598,0 0,1.64764 c 2.17913,-0.17008 7.57913,-0.17008 10.02401,-0.17008 2.43426,0 7.88741,0 10.05591,0.17008 l 0,-1.64764 -2.12598,0 c -5.55945,0 -5.55945,-0.72283 -5.55945,-2.54055 l 0,-27.90354 c 0,-1.06299 0,-1.80709 0.96732,-2.00906 0.57402,-0.11693 2.00906,-0.11693 3.0189,-0.11693 7.9937,0 8.79094,1.74331 9.51378,10.28977 l 1.32874,0 z"
                         id="path10813" /><path
                         style="font-style:normal;font-variant:normal;font-weight:normal;font-stretch:normal;letter-spacing:normal;word-spacing:normal;text-anchor:start;fill:#000000;fill-opacity:1;fill-rule:evenodd;stroke:#000000;stroke-width:0;stroke-linecap:butt;stroke-linejoin:miter;stroke-miterlimit:10.43299961;stroke-dasharray:none;stroke-dashoffset:0;stroke-opacity:1"
                         inkscape:connector-curvature="0"
                         d="m 429.10865,339.53032 -0.0213,-1.00984 -0.0744,-0.98858 -0.1063,-0.97796 -0.15945,-0.95669 -0.20197,-0.94606 -0.23386,-0.91417 -0.287,-0.90355 -0.3189,-0.88228 -0.35079,-0.86102 -0.39331,-0.83977 -0.43582,-0.80787 -0.45709,-0.78662 -0.49961,-0.76535 -0.52086,-0.72284 -0.56339,-0.70157 -0.58464,-0.68032 -0.61654,-0.63779 -0.63779,-0.60591 -0.66969,-0.57401 -0.69094,-0.5315 -0.71221,-0.4996 -0.74409,-0.46772 -0.75473,-0.4252 -0.78661,-0.38267 -0.79725,-0.35079 -0.8185,-0.29764 -0.82913,-0.26575 -0.8504,-0.2126 -0.86102,-0.17008 -0.87165,-0.11692 -0.89292,-0.0744 -0.89291,-0.0213 0,1.32874 c 4.61339,0 12.18189,3.75236 12.18189,17.30551 0,14.03149 -7.24961,18.48543 -12.13937,18.48543 l 0,0 c -5.0811,0 -12.17126,-4.6559 -12.17126,-18.48543 0,-13.70197 7.73858,-17.30551 12.12874,-17.30551 l 0,-1.32874 c -9.49252,0 -17.58189,8.46141 -17.58189,19.37834 0,10.86378 8.16378,19.1126 17.58189,19.1126 9.63071,0 17.63504,-8.4189 17.63504,-19.1126 z"
                         id="path10815" /></g><g
                       id="g14798"
                       transform="matrix(0.23507136,0.55528338,-0.4831317,0.23507134,1598.1293,-71.707624)"><path
                         style="font-style:normal;font-variant:normal;font-weight:normal;font-stretch:normal;letter-spacing:normal;word-spacing:normal;text-anchor:start;fill:#000000;fill-opacity:1;fill-rule:evenodd;stroke:#000000;stroke-width:0;stroke-linecap:butt;stroke-linejoin:miter;stroke-miterlimit:10.43299961;stroke-dasharray:none;stroke-dashoffset:0;stroke-opacity:1"
                         inkscape:connector-curvature="0"
                         d="m 342.84178,329.48951 0.082,-0.23696 0.0821,-0.22785 0.10024,-0.20961 0.10025,-0.20051 0.10026,-0.19139 0.10936,-0.17317 0.11848,-0.17315 0.11849,-0.15494 0.12759,-0.14583 0.12759,-0.14581 0.12759,-0.1276 0.14582,-0.11848 0.13671,-0.10936 0.14583,-0.10026 0.14581,-0.0911 0.15495,-0.0911 0.14581,-0.073 0.16405,-0.0729 0.15493,-0.0638 0.16405,-0.0638 0.15494,-0.0456 0.16404,-0.0456 0.16406,-0.0365 0.17316,-0.0365 0.16404,-0.0274 0.16406,-0.0274 0.17315,-0.0182 0.16406,-0.0182 0.33721,-0.0182 0.33721,0 0,-1.41264 c -1.35796,0.10025 -2.7706,0.14581 -4.13768,0.14581 -1.30327,0 -4.21058,-0.10024 -5.39538,-0.14581 l 0,1.41264 c 3.0349,0.0365 3.94628,1.53111 3.94628,2.40604 0,0.26431 -0.12759,0.63797 -0.22785,0.9114 l -6.80802,20.97091 -7.26372,-22.23774 c -0.0547,-0.1914 -0.13671,-0.45569 -0.13671,-0.68354 0,-1.36707 2.63389,-1.36707 3.80957,-1.36707 l 0,-1.41264 c -1.63136,0.14581 -4.72095,0.14581 -6.44347,0.14581 -1.72251,0 -3.68199,-0.10024 -5.5412,-0.14581 l 0,1.41264 c 2.58833,0 3.54527,0 4.08298,1.63138 l 1.00253,3.18071 -6.31588,19.47626 -7.30018,-22.338 c -0.0456,-0.1276 -0.10025,-0.45569 -0.10025,-0.58328 0,-1.36707 2.63389,-1.36707 3.81869,-1.36707 l 0,-1.41264 c -1.64049,0.14581 -4.72096,0.14581 -6.45258,0.14581 -1.72252,0 -3.67288,-0.10024 -5.54122,-0.14581 l 0,1.41264 c 3.41769,0 3.59085,0.22784 4.1468,1.90479 l 9.06825,27.84274 c 0.14583,0.39189 0.27343,0.84759 0.86582,0.84759 0.62886,0 0.72911,-0.30988 0.91138,-0.91138 l 7.49157,-23.04888 7.53714,23.11267 c 0.1367,0.39189 0.2643,0.84759 0.86581,0.84759 0.62885,0 0.7291,-0.30988 0.90227,-0.91138 z"
                         id="path14800"
                         transform="matrix(1.9882391,0,0,1.9882391,-330.98295,-351.21174)" /><path
                         id="path14802"
                         d="m 387.93896,321.62954 -32.37873,0 -0.99922,11.92677 1.32874,0 c 0.73347,-8.54646 1.53071,-10.28977 9.52441,-10.28977 0.95669,0 2.33858,0 2.87008,0.11693 1.11614,0.20197 1.11614,0.78662 1.11614,2.00906 l 0,27.90354 c 0,1.81772 0,2.54055 -5.57008,2.54055 l -2.12598,0 0,1.64764 c 2.17913,-0.17008 7.57913,-0.17008 10.02401,-0.17008 2.43426,0 7.88741,0 10.05591,0.17008 l 0,-1.64764 -2.12598,0 c -5.55945,0 -5.55945,-0.72283 -5.55945,-2.54055 l 0,-27.90354 c 0,-1.06299 0,-1.80709 0.96732,-2.00906 0.57402,-0.11693 2.00906,-0.11693 3.0189,-0.11693 7.9937,0 8.79094,1.74331 9.51378,10.28977 l 1.32874,0 z"
                         inkscape:connector-curvature="0"
                         style="font-style:normal;font-variant:normal;font-weight:normal;font-stretch:normal;letter-spacing:normal;word-spacing:normal;text-anchor:start;fill:#000000;fill-opacity:1;fill-rule:evenodd;stroke:#000000;stroke-width:0;stroke-linecap:butt;stroke-linejoin:miter;stroke-miterlimit:10.43299961;stroke-dasharray:none;stroke-dashoffset:0;stroke-opacity:1" /><path
                         id="path14804"
                         d="m 429.10865,339.53032 -0.0213,-1.00984 -0.0744,-0.98858 -0.1063,-0.97796 -0.15945,-0.95669 -0.20197,-0.94606 -0.23386,-0.91417 -0.287,-0.90355 -0.3189,-0.88228 -0.35079,-0.86102 -0.39331,-0.83977 -0.43582,-0.80787 -0.45709,-0.78662 -0.49961,-0.76535 -0.52086,-0.72284 -0.56339,-0.70157 -0.58464,-0.68032 -0.61654,-0.63779 -0.63779,-0.60591 -0.66969,-0.57401 -0.69094,-0.5315 -0.71221,-0.4996 -0.74409,-0.46772 -0.75473,-0.4252 -0.78661,-0.38267 -0.79725,-0.35079 -0.8185,-0.29764 -0.82913,-0.26575 -0.8504,-0.2126 -0.86102,-0.17008 -0.87165,-0.11692 -0.89292,-0.0744 -0.89291,-0.0213 0,1.32874 c 4.61339,0 12.18189,3.75236 12.18189,17.30551 0,14.03149 -7.24961,18.48543 -12.13937,18.48543 l 0,0 c -5.0811,0 -12.17126,-4.6559 -12.17126,-18.48543 0,-13.70197 7.73858,-17.30551 12.12874,-17.30551 l 0,-1.32874 c -9.49252,0 -17.58189,8.46141 -17.58189,19.37834 0,10.86378 8.16378,19.1126 17.58189,19.1126 9.63071,0 17.63504,-8.4189 17.63504,-19.1126 z"
                         inkscape:connector-curvature="0"
                         style="font-style:normal;font-variant:normal;font-weight:normal;font-stretch:normal;letter-spacing:normal;word-spacing:normal;text-anchor:start;fill:#000000;fill-opacity:1;fill-rule:evenodd;stroke:#000000;stroke-width:0;stroke-linecap:butt;stroke-linejoin:miter;stroke-miterlimit:10.43299961;stroke-dasharray:none;stroke-dashoffset:0;stroke-opacity:1" /></g></g></g></g><g
                 id="g15427"
                 transform="matrix(0.49999999,0,0,-0.54161505,-275.03171,957.55415)"><g
                   id="g15429"
                   transform="matrix(1.0629921,0,0,-1.0629921,-186.02362,789.27165)"
                   xml:space="preserve"
                   stroke-miterlimit="10.433"
                   font-style="normal"
                   font-variant="normal"
                   font-weight="normal"
                   font-stretch="normal"
                   font-size-adjust="none"
                   letter-spacing="normal"
                   word-spacing="normal"
                   style="font-style:normal;font-variant:normal;font-weight:normal;font-stretch:normal;letter-spacing:normal;word-spacing:normal;text-anchor:start;fill:none;fill-opacity:1;fill-rule:evenodd;stroke:#000000;stroke-linecap:butt;stroke-linejoin:miter;stroke-miterlimit:10.43299961;stroke-dasharray:none;stroke-dashoffset:0;stroke-opacity:1"><path
                     d="m 475.35,440.87 -0.03,0.06 -0.02,0.06 -0.02,0.06 -0.02,0.05 -0.02,0.06 -0.02,0.05 -0.02,0.05 -0.02,0.04 -0.03,0.05 -0.02,0.04 -0.02,0.05 -0.02,0.04 -0.03,0.03 -0.02,0.04 -0.03,0.03 -0.03,0.04 -0.03,0.03 -0.03,0.03 -0.03,0.02 -0.04,0.03 -0.04,0.02 -0.04,0.02 -0.04,0.02 -0.04,0.02 -0.05,0.01 -0.05,0.01 -0.06,0.02 -0.06,0 -0.06,0.01 -0.06,0.01 -0.07,0 -0.04,0 -0.03,0 c -0.8,0 -0.96,-0.3 -1.21,-1 l -10.31,-29.8 c -0.89,-2.53 -2.89,-3.28 -5.58,-3.32 l 0,-1.55 c 1.14,0.05 3.28,0.16 5.08,0.16 1.55,0 4.14,-0.11 5.74,-0.16 l 0,1.55 c -2.49,0 -3.74,1.25 -3.74,2.53 0,0.15 0.05,0.65 0.1,0.75 l 2.29,6.53 0.55,1.55 5.58,16.18 5.62,-16.18 -11.2,0 -0.55,-1.55 12.3,0 2.64,-7.63 c 0.06,-0.2 0.16,-0.5 0.16,-0.68 0,-1.5 -2.8,-1.5 -4.14,-1.5 l 0,-1.55 c 1.79,0.16 5.28,0.16 7.18,0.16 2.14,0 4.42,-0.07 6.52,-0.16 l 0,1.55 -0.89,0 c -3,0 -3.69,0.34 -4.24,1.98 z"
                     id="path15431"
                     inkscape:connector-curvature="0"
                     style="fill:#000000;stroke-width:0" /></g></g><g
                 id="g15641"
                 transform="matrix(0.49999999,0,0,-0.5747538,-55.366057,968.29382)"><g
                   word-spacing="normal"
                   letter-spacing="normal"
                   font-size-adjust="none"
                   font-stretch="normal"
                   font-weight="normal"
                   font-variant="normal"
                   font-style="normal"
                   stroke-miterlimit="10.433"
                   xml:space="preserve"
                   transform="matrix(1.0629921,0,0,-1.0629921,-186.02362,789.27165)"
                   id="g15643"
                   style="font-style:normal;font-variant:normal;font-weight:normal;font-stretch:normal;letter-spacing:normal;word-spacing:normal;text-anchor:start;fill:none;fill-opacity:1;fill-rule:evenodd;stroke:#000000;stroke-linecap:butt;stroke-linejoin:miter;stroke-miterlimit:10.43299961;stroke-dasharray:none;stroke-dashoffset:0;stroke-opacity:1"><path
                     id="path15645"
                     d="m 478.33,423.98 0.45,0.1 0.44,0.1 0.44,0.13 0.42,0.13 0.41,0.14 0.4,0.16 0.4,0.17 0.38,0.18 0.37,0.19 0.36,0.2 0.35,0.21 0.33,0.21 0.32,0.23 0.31,0.24 0.3,0.25 0.28,0.25 0.27,0.26 0.25,0.27 0.24,0.28 0.22,0.28 0.21,0.29 0.19,0.3 0.17,0.3 0.16,0.31 0.14,0.32 0.12,0.32 0.11,0.32 0.09,0.33 0.06,0.34 0.05,0.33 0.03,0.34 0.01,0.35 c 0,4.33 -4.59,8.42 -11.06,8.42 l -0.36,-1.55 c 4.85,0 6.58,-4.23 6.58,-6.87 0,-3.19 -2.44,-7.38 -7.97,-7.38 l -7.22,0 0,-1.09 9.36,0 c 4.94,0 7.03,-4.64 7.03,-7.97 0,-3.55 -2.59,-7.62 -7.72,-7.62 l 0,0 -6.23,0 c -2.34,0 -2.44,0.34 -2.44,1.98 l 0,13.61 0,1.09 0,12.25 c 0,1.66 0.1,2 2.44,2 l 6.17,0 0.36,1.55 -18.23,0 0,-1.55 1.18,0 c 3.85,0 3.94,-0.54 3.94,-2.34 l 0,-26.25 c 0,-1.8 -0.09,-2.34 -3.94,-2.34 l -1.18,0 0,-1.55 19.53,0 c 6.62,0 11.11,4.44 11.11,9.12 0,4.33 -4.1,8.07 -9.63,8.66 z"
                     inkscape:connector-curvature="0"
                     style="fill:#000000;stroke-width:0" /></g></g><g
                 id="g15861"
                 transform="matrix(0.5,0,0,-0.52608145,129.96846,794.41225)"><g
                   id="g15863"
                   transform="matrix(1.0629921,0,0,-1.0629921,-186.02362,789.27165)"
                   xml:space="preserve"
                   stroke-miterlimit="10.433"
                   font-style="normal"
                   font-variant="normal"
                   font-weight="normal"
                   font-stretch="normal"
                   font-size-adjust="none"
                   letter-spacing="normal"
                   word-spacing="normal"
                   style="font-style:normal;font-variant:normal;font-weight:normal;font-stretch:normal;letter-spacing:normal;word-spacing:normal;text-anchor:start;fill:none;fill-opacity:1;fill-rule:evenodd;stroke:#000000;stroke-linecap:butt;stroke-linejoin:miter;stroke-miterlimit:10.43299961;stroke-dasharray:none;stroke-dashoffset:0;stroke-opacity:1"><path
                     d="m 458.32,423.23 0.02,-0.96 0.07,-0.94 0.11,-0.93 0.16,-0.91 0.2,-0.89 0.24,-0.87 0.28,-0.85 0.32,-0.83 0.36,-0.81 0.39,-0.78 0.43,-0.76 0.46,-0.74 0.49,-0.7 0.52,-0.68 0.55,-0.66 0.59,-0.62 0.6,-0.59 0.64,-0.56 0.66,-0.53 0.68,-0.5 0.7,-0.46 0.73,-0.43 0.74,-0.39 0.77,-0.35 0.78,-0.32 0.79,-0.28 0.82,-0.23 0.82,-0.2 0.84,-0.15 0.84,-0.11 0.86,-0.07 0.86,-0.02 c 8.13,0 13,6.92 13,12.7 0,0.5 0,0.84 -0.64,0.84 -0.54,0 -0.54,-0.29 -0.59,-0.79 -0.41,-7.13 -5.73,-11.21 -11.17,-11.21 -3.03,0 -12.8,1.69 -12.8,16.53 0,14.91 9.72,16.6 12.75,16.6 5.44,0 9.88,-4.53 10.86,-11.82 0.11,-0.68 0.11,-0.84 0.8,-0.84 0.79,0 0.79,0.16 0.79,1.2 l 0,11.8 c 0,0.86 0,1.2 -0.54,1.2 -0.19,0 -0.39,0 -0.8,-0.59 l -2.48,-3.69 c -1.85,1.8 -4.39,4.28 -9.18,4.28 -9.31,0 -17.32,-7.92 -17.32,-18.09 z"
                     id="path15865"
                     inkscape:connector-curvature="0"
                     style="fill:#000000;stroke-width:0" /></g></g><g
                 id="g16087"
                 transform="matrix(0.5,0,0,0.5,180.67151,325.20973)"><g
                   word-spacing="normal"
                   letter-spacing="normal"
                   font-size-adjust="none"
                   font-stretch="normal"
                   font-weight="normal"
                   font-variant="normal"
                   font-style="normal"
                   stroke-miterlimit="10.433"
                   xml:space="preserve"
                   transform="matrix(1.0629921,0,0,-1.0629921,-186.02362,789.27165)"
                   id="g16089"
                   style="font-style:normal;font-variant:normal;font-weight:normal;font-stretch:normal;letter-spacing:normal;word-spacing:normal;text-anchor:start;fill:none;fill-opacity:1;fill-rule:evenodd;stroke:#000000;stroke-linecap:butt;stroke-linejoin:miter;stroke-miterlimit:10.43299961;stroke-dasharray:none;stroke-dashoffset:0;stroke-opacity:1"><path
                     id="path16091"
                     d="m 457.27,440.23 0,-1.55 1.19,0 c 3.84,0 3.93,-0.54 3.93,-2.34 l 0,-26.25 c 0,-1.8 -0.09,-2.34 -3.93,-2.34 l -1.19,0 0,-1.55 18.23,0 -1.34,1.55 -5.05,0 c -2.32,0 -2.43,0.34 -2.43,1.98 l 0,26.95 c 0,1.66 0.11,2 2.43,2 l 4.99,0 c 3.09,0 6.53,-1.09 9.08,-4.64 2.14,-2.93 2.57,-7.22 2.57,-11.11 0,-5.53 -0.93,-8.51 -2.73,-10.95 -1,-1.34 -3.83,-4.23 -8.86,-4.23 l 1.34,-1.55 c 8.36,0 15.24,7.37 15.24,16.73 0,9.47 -6.72,17.3 -15.24,17.3 z"
                     inkscape:connector-curvature="0"
                     style="fill:#000000;stroke-width:0" /></g></g></g></g></g></g>    </g>
  </g>
</svg>
