\select@language {english}
\addvspace {10\p@ }
\contentsline {figure}{\numberline {1.1}{\ignorespaces Payload-Range for a completely flexible aircraft}}{2}{figure.1.1}
\contentsline {figure}{\numberline {1.2}{\ignorespaces Payload-Range with MZFW limitation}}{3}{figure.1.2}
